# Blender v2.78 (sub 0) OBJ File: ''
# www.blender.org
mtllib charBrdCircleClean.mtl
o copy_charBrdCirclClean.001
v -2.000004 3.999997 -1.500005
v 2.999997 1.000000 -1.500007
v -3.000005 1.000000 -1.500007
v -2.000004 3.999997 1.500000
v -3.000005 1.000000 1.499999
v -2.000004 1.000000 1.499999
v -3.000005 1.000000 0.499997
v -3.000005 1.999993 0.499997
v -4.000007 1.000000 -1.500007
v -4.000007 4.999999 -0.500003
v -4.000007 6.000000 -1.500005
v -0.555556 3.999997 0.000002
v -3.000005 6.999994 -1.500005
v 1.999995 5.000000 -1.500005
v -2.000004 5.000000 -1.500005
v -2.000004 6.999994 -0.500003
v -3.000005 6.999993 -0.500003
v -3.000005 6.000000 -1.500005
v -2.000004 4.999998 1.500000
v -2.000004 4.999999 0.499998
v -2.000004 6.999994 0.499999
v -2.000004 6.000000 0.499999
v 1.999995 6.000000 0.499999
v -3.000005 4.999999 1.500000
v -4.000007 1.000000 -0.500005
v -3.000005 1.000000 -0.500005
v 3.999998 6.000000 -1.500005
v 3.999998 1.999993 -0.500005
v 3.999998 1.000000 -1.500007
v 2.999997 1.000000 1.499999
v 2.999997 1.000000 0.499997
v 2.999997 1.999993 0.499997
v 1.999995 3.999997 1.500000
v 1.999995 3.999997 -1.500005
v 0.555555 3.999997 0.000002
v 2.999997 6.999994 -1.500005
v 2.999997 6.000000 -1.500005
v 1.999995 4.999998 1.500000
v 1.999996 4.999999 0.499998
v 2.999997 4.999999 1.500000
v 1.999995 6.000000 1.500001
v 0.000000 4.999998 1.500000
v 0.555555 4.999999 0.555557
v -0.555556 4.999999 0.555557
v 1.999995 1.000000 1.499999
v -3.000005 -0.000002 -1.500007
v -2.000004 -0.000002 0.499997
v -3.000005 -0.000002 0.499997
v 2.999997 -0.000002 -1.500007
v 1.999995 -0.000002 0.499997
v -3.000005 1.999993 -0.500005
v -4.000007 1.999993 -0.500005
v -2.000004 1.000000 0.499997
v -2.000004 -0.000002 1.499999
v 1.999995 -0.000002 1.499999
v -3.000005 6.000000 -0.500003
v -4.000007 6.000000 -0.500003
v -2.000004 6.000000 -0.500003
v -3.000005 4.999999 -0.500003
v -2.000004 6.000000 1.500001
v -3.000005 4.999999 0.499998
v -3.000005 6.000000 0.499999
v 2.999997 1.000000 -0.500005
v 3.999998 1.000000 -0.500005
v 2.999997 1.999993 -0.500005
v 1.999995 1.000000 0.499997
v 2.999997 -0.000002 0.499997
v 2.999997 6.999993 -0.500003
v 2.999997 6.000000 -0.500003
v 3.999998 6.000000 -0.500003
v 1.999995 6.000000 -0.500003
v 1.999995 6.999994 -0.500003
v 2.999997 4.999999 -0.500003
v 3.999998 4.999999 -0.500003
v 2.999997 4.999999 0.499998
v 2.999997 6.000000 0.499999
v 1.999995 6.999994 0.499999
v -4.000007 1.999993 0.499997
v -4.000007 4.999999 0.499998
v 3.999998 1.999993 0.499997
v 3.999998 4.999999 0.499998
vt 0.1875 0.3750
vt 0.3750 0.0625
vt 0.3750 0.4375
vt 0.5000 0.0625
vt 0.6875 0.0000
vt 0.6875 0.0625
vt 0.0625 0.7500
vt 0.0000 0.7500
vt 0.0625 0.6875
vt 1.0000 0.3125
vt 0.9375 0.0625
vt 1.0000 0.0000
vt 0.7187 0.4653
vt 0.6250 0.3750
vt 0.8125 0.3750
vt 0.0000 0.4375
vt 0.1250 0.1250
vt 0.1250 0.3750
vt 0.8750 0.6875
vt 0.9375 0.7500
vt 0.8750 0.7500
vt 0.0625 0.4375
vt 0.0625 0.5000
vt 0.8125 0.7500
vt 0.8750 0.7500
vt 0.8125 0.8125
vt 1.0000 0.6250
vt 0.9375 0.6250
vt 0.9375 0.3750
vt 0.4375 0.0625
vt 0.4375 0.0000
vt 0.1250 0.8750
vt 0.1250 0.9375
vt 0.0625 0.9375
vt 0.0625 0.8750
vt 0.8750 0.3125
vt 0.8125 0.0625
vt 0.8750 0.0000
vt 0.1875 0.5625
vt 0.2500 0.5625
vt 0.2500 0.6250
vt 0.9375 0.9375
vt 0.8750 0.7500
vt 0.9375 0.7500
vt 0.8125 0.6250
vt 0.6250 0.6250
vt 0.7188 0.5347
vt 0.0625 0.0000
vt 0.1875 0.1250
vt 0.0000 0.0625
vt 0.0625 0.0625
vt 0.8750 0.9375
vt 0.8750 0.8750
vt 0.4375 0.3750
vt 0.4375 0.3125
vt 0.5000 0.3125
vt 0.5000 1.0000
vt 0.5625 0.8750
vt 0.5625 1.0000
vt 0.7535 0.7153
vt 0.8125 0.7500
vt 0.7535 0.7847
vt 0.6875 0.3125
vt 0.6250 0.3750
vt 0.5000 0.4375
vt 0.5000 0.3750
vt 0.8125 0.9375
vt 0.6250 0.6250
vt 0.7500 0.6250
vt 0.1875 0.8125
vt 0.1250 0.7500
vt 0.1875 0.7500
vt 0.6250 0.7500
vt 0.5000 0.6875
vt 0.3750 0.5000
vt 0.4375 0.0625
vt 0.4375 0.4375
vt 0.8750 0.9375
vt 0.9375 0.9375
vt 0.9375 1.0000
vt 0.8750 1.0000
vt 0.9375 0.3125
vt 0.9375 0.2500
vt 0.1875 0.8125
vt 0.1875 0.8750
vt 0.1250 0.8750
vt 0.1250 0.8125
vt 0.4375 0.4375
vt 0.4375 0.6875
vt 0.7500 0.0625
vt 0.7500 0.3125
vt 0.1250 0.8125
vt 0.1250 0.8750
vt 0.0625 0.8750
vt 0.0625 0.8125
vt 0.7500 0.9375
vt 0.7500 0.8750
vt 0.8125 0.8750
vt 0.8125 0.9375
vt 0.9375 0.8125
vt 1.0000 0.8125
vt 1.0000 0.8750
vt 0.9375 0.8750
vt 0.1875 0.9375
vt 0.1250 0.9375
vt 0.1250 0.8750
vt 0.1875 0.8750
vt 0.8125 0.9375
vt 0.8750 0.9375
vt 0.8750 1.0000
vt 0.8125 1.0000
vt 0.8750 0.9375
vt 0.6250 0.8750
vt 0.6875 0.8750
vt 0.6875 0.9375
vt 0.6250 0.9375
vt 0.9375 0.0000
vt 0.8125 0.8750
vt 0.7500 0.8750
vt 0.5000 1.0000
vt 0.4375 1.0000
vt 0.4375 0.7500
vt 0.5000 0.7500
vt 0.1875 0.8750
vt 0.1875 0.8125
vt 0.2500 0.8125
vt 0.2500 0.8750
vt 0.1250 0.9375
vt 0.1875 0.9375
vt 0.1875 1.0000
vt 0.1250 1.0000
vt 0.5625 0.7500
vt 0.5000 0.7500
vt 0.9375 0.7500
vt 0.9375 0.6875
vt 1.0000 0.6875
vt 1.0000 0.7500
vt 0.0625 0.9375
vt 0.1250 0.9375
vt 0.1250 1.0000
vt 0.0625 1.0000
vt 0.3750 0.5625
vt 0.3125 0.5625
vt 0.3750 0.5000
vt 0.3750 0.0000
vt 0.9375 0.9375
vt 1.0000 0.9375
vt 1.0000 1.0000
vt 0.9375 1.0000
vt 0.8125 0.0000
vt 0.2500 0.8750
vt 0.2500 0.8125
vt 0.3125 0.8125
vt 0.3125 0.8750
vt 0.3750 0.8125
vt 0.3750 0.8750
vt 0.3125 0.8750
vt 0.3125 0.8125
vt 0.2500 1.0000
vt 0.2500 0.9375
vt 0.3125 0.9375
vt 0.3125 1.0000
vt 0.8125 0.3750
vt 0.8125 0.3125
vt 0.8750 0.3125
vt 0.8750 0.3750
vt 0.6875 0.3750
vt 0.6875 0.9375
vt 0.6875 0.8750
vt 0.7500 0.8750
vt 0.7500 0.9375
vt 1.0000 0.9375
vt 0.9375 0.9375
vt 0.9375 0.8750
vt 1.0000 0.8750
vt 0.8750 0.4375
vt 0.8750 0.3750
vt 0.9375 0.3750
vt 0.9375 0.7500
vt 1.0000 0.7500
vt 1.0000 0.8125
vt 0.9375 0.8125
vt 0.8125 0.3125
vt 0.8125 0.2500
vt 0.8125 0.6250
vt 0.1875 0.9375
vt 0.1875 0.8750
vt 0.2500 0.8750
vt 0.2500 0.9375
vt 0.3125 0.8750
vt 0.3750 0.8750
vt 0.3750 0.9375
vt 0.3125 0.9375
vt 0.7500 0.3125
vt 0.8125 0.3125
vt 0.8125 0.3750
vt 0.7500 0.3750
vt 0.0625 0.5000
vt 0.0000 0.5000
vt 1.0000 0.3750
vt 0.6250 0.9375
vt 0.5625 0.9375
vt 0.5625 0.7500
vt 0.6250 0.7500
vt 0.2500 0.8125
vt 0.1875 0.8125
vt 0.0000 0.8125
vt 0.0625 0.8125
vt 0.0625 1.0000
vt 0.0000 1.0000
vt 0.0625 0.8125
vt 0.3125 0.8750
vt 0.3125 0.9375
vt 0.2500 0.9375
vt 0.2500 0.8750
vt 0.1250 0.6875
vt 0.1875 1.0000
vt 0.1875 0.9375
vt 0.2500 0.9375
vt 0.2500 1.0000
vt 0.9375 0.3125
vt 0.9375 0.3750
vt 0.8750 0.3750
vt 0.8750 0.3125
vt 0.6250 0.8750
vt 0.7500 0.9375
vt 0.7500 1.0000
vt 0.6875 1.0000
vt 0.6875 0.9375
vt 0.6250 1.0000
vt 0.6250 0.9375
vt 0.6875 0.9375
vt 0.6875 1.0000
vt 0.2500 0.5000
vt 0.3125 0.9375
vt 0.3750 0.9375
vt 0.3750 1.0000
vt 0.3125 1.0000
vt 0.3125 0.6250
vt 1.0000 0.3125
vt 1.0000 0.3750
vt 0.9375 0.3750
vt 0.9375 0.3125
vt 0.5000 0.7500
vt 0.5625 1.0000
vt 0.5625 0.9375
vt 0.6250 0.9375
vt 0.6250 1.0000
vt 1.0000 0.6250
vt 1.0000 0.6875
vt 0.9375 0.6875
vt 0.9375 0.6250
vt 0.7500 1.0000
vt 0.7500 0.9375
vt 0.8125 0.9375
vt 0.8125 1.0000
vt 0.8750 0.2500
vt 0.8750 0.0625
vt 0.7500 0.2500
vt 0.7500 0.0625
vt 0.8125 0.6875
vt 0.8125 0.4375
vn 0.0000 0.0000 -1.0000
vn 0.0000 -0.0000 1.0000
vn -1.0000 0.0000 0.0000
vn -0.0000 1.0000 0.0000
vn 1.0000 0.0000 0.0000
vn 0.0000 -1.0000 -0.0000
usemtl palette.004
s off
f 1/1/1 2/2/1 3/3/1
f 4/4/2 5/5/2 6/6/2
f 7/7/3 5/8/3 8/9/3
f 9/10/3 10/11/3 11/12/3
f 12/13/4 1/14/4 4/15/4
f 13/16/1 14/17/1 15/18/1
f 16/19/4 13/20/4 17/21/4
f 13/16/1 15/18/1 18/22/1
f 11/23/1 18/22/1 15/18/1
f 19/24/5 4/25/5 20/26/5
f 21/27/2 22/28/2 23/29/2
f 19/30/2 24/31/2 4/4/2
f 25/32/6 9/33/6 3/34/6 26/35/6
f 27/36/5 28/37/5 29/38/5
f 30/39/5 31/40/5 32/41/5
f 33/42/3 14/43/3 34/44/3
f 33/45/4 34/46/4 35/47/4
f 14/17/1 27/48/1 34/49/1
f 14/17/1 36/50/1 37/51/1
f 37/51/1 27/48/1 14/17/1
f 33/42/3 38/52/3 39/53/3
f 40/54/2 38/55/2 33/56/2
f 41/57/2 42/58/2 38/59/2
f 35/47/4 34/46/4 12/13/4
f 43/60/6 42/61/6 44/62/6
f 1/1/1 34/49/1 2/2/1
f 33/56/2 4/4/2 45/63/2
f 46/64/6 47/65/6 48/66/6
f 20/26/5 4/25/5 15/67/5
f 33/42/3 39/53/3 14/43/3
f 14/68/6 39/69/6 43/60/6
f 46/70/3 26/71/3 3/72/3
f 47/65/6 46/64/6 49/73/6 50/74/6
f 9/75/1 1/1/1 3/3/1
f 49/76/1 46/77/1 3/3/1 2/2/1
f 25/78/2 26/79/2 51/80/2 52/81/2
f 25/82/3 52/83/3 9/10/3
f 53/84/3 47/85/3 54/86/3 6/87/3
f 54/88/6 47/65/6 50/74/6 55/89/6
f 54/90/2 55/91/2 45/63/2 6/6/2
f 5/92/6 7/93/6 53/94/6 6/95/6
f 45/63/2 4/4/2 6/6/2
f 48/96/2 47/97/2 53/98/2 7/99/2
f 1/1/1 9/75/1 11/23/1 15/18/1
f 13/100/3 18/101/3 56/102/3 17/103/3
f 11/104/4 57/105/4 56/106/4 18/107/4
f 56/108/2 58/109/2 16/110/2 17/111/2
f 15/67/5 4/25/5 1/112/5
f 12/13/4 34/46/4 1/14/4
f 10/113/2 59/114/2 56/115/2 57/116/2
f 11/12/3 10/11/3 57/117/3
f 19/118/6 20/119/6 44/62/6 42/61/6
f 33/45/4 12/13/4 4/15/4
f 22/120/4 60/121/4 41/122/4 23/123/4
f 61/124/4 24/125/4 19/126/4 20/127/4
f 60/128/3 22/129/3 20/130/3 19/131/3
f 19/132/2 42/58/2 41/57/2 60/133/2
f 62/134/2 61/135/2 20/136/2 22/137/2
f 63/138/6 2/139/6 29/140/6 64/141/6
f 2/142/5 63/143/5 49/144/5
f 29/145/1 2/2/1 34/49/1 27/48/1
f 63/146/2 64/147/2 28/148/2 65/149/2
f 29/38/5 28/37/5 64/150/5
f 50/151/5 66/152/5 45/153/5 55/154/5
f 45/155/6 66/156/6 31/157/6 30/158/6
f 50/159/2 67/160/2 31/161/2 66/162/2
f 37/163/5 36/164/5 68/165/5 69/166/5
f 30/167/2 33/56/2 45/63/2
f 37/168/4 69/169/4 70/170/4 27/171/4
f 71/172/2 69/173/2 68/174/2 72/175/2
f 72/176/4 68/177/4 36/178/4
f 73/179/2 74/180/2 70/181/2 69/182/2
f 70/183/5 74/184/5 27/36/5
f 38/185/6 42/61/6 43/60/6 39/69/6
f 39/186/4 38/187/4 40/188/4 75/189/4
f 39/190/5 23/191/5 41/192/5 38/193/5
f 39/194/2 75/195/2 76/196/2 23/197/2
f 13/20/4 16/19/4 72/176/4 36/178/4
f 61/198/3 8/9/3 5/8/3 24/199/3
f 13/16/1 36/50/1 14/17/1
f 33/45/4 35/47/4 12/13/4
f 77/200/2 21/27/2 23/29/2
f 52/83/3 10/11/3 9/10/3
f 74/184/5 28/37/5 27/36/5
f 78/201/2 8/202/2 61/203/2 79/204/2
f 32/41/5 75/205/5 40/206/5 30/39/5
f 4/4/2 24/31/2 5/5/2
f 32/207/2 80/208/2 81/209/2 75/210/2
f 26/71/3 46/70/3 48/211/3 7/7/3
f 30/167/2 40/54/2 33/56/2
f 78/212/6 52/213/6 51/214/6 8/215/6
f 51/216/3 26/71/3 7/7/3 8/9/3
f 10/217/4 79/218/4 61/219/4 59/220/4
f 16/221/3 58/222/3 22/223/3 21/224/3
f 15/225/6 44/62/6 20/119/6
f 56/226/3 59/227/3 61/228/3 62/229/3
f 56/230/4 62/231/4 22/232/4 58/233/4
f 67/234/5 49/144/5 63/143/5 31/40/5
f 32/235/6 65/236/6 28/237/6 80/238/6
f 63/143/5 65/239/5 32/41/5 31/40/5
f 71/240/5 72/241/5 77/242/5 23/243/5
f 49/73/6 67/244/6 50/74/6
f 73/245/4 75/246/4 81/247/4 74/248/4
f 73/249/5 69/250/5 76/251/5 75/252/5
f 71/253/4 23/254/4 76/255/4 69/256/4
f 10/11/3 52/83/3 78/257/3 79/258/3
f 28/37/5 74/184/5 81/259/5 80/260/5
f 44/62/6 15/225/6 14/68/6 43/60/6
f 16/19/4 21/261/4 77/262/4 72/176/4
