# Blender v2.78 (sub 0) OBJ File: ''
# www.blender.org
mtllib propBench.mtl
o copy_propBench.001
v -8.000014 6.999994 -2.499998
v -7.000004 1.999994 -2.500000
v -8.000014 -0.000010 -2.500000
v -7.000004 1.000000 -1.500007
v -1.666667 1.000000 -0.598958
v -7.000004 1.000000 1.499990
v -0.277778 1.999993 0.000000
v -7.000004 1.999994 -1.500006
v -7.000004 1.999993 -0.555555
v -7.000004 2.999985 2.500000
v -7.000004 1.999993 1.499990
v -7.000004 1.999993 0.555556
v -7.000004 1.999993 2.500000
v -7.000004 1.000000 2.500000
v 6.999987 1.000000 2.500000
v -7.000004 4.999990 -2.499998
v -7.000004 3.999997 -2.499998
v -7.000004 4.999990 -1.500005
v -8.000014 2.999987 -1.500005
v -7.000004 3.999996 -1.500005
v -7.000004 6.000000 -2.499998
v 6.999987 4.999990 -1.500005
v 6.999986 1.999994 -2.500000
v 6.999987 1.000000 -2.500000
v -7.000004 1.000000 -2.500000
v 6.999987 1.000000 -1.500007
v 6.999987 1.000000 1.499990
v 7.999996 1.999994 -1.500006
v 6.999987 1.999993 -0.555555
v 6.999987 1.999994 -1.500006
v 7.999996 2.999987 -1.500005
v 6.999988 2.999987 -1.500005
v 6.999986 2.999985 2.500000
v 6.999987 1.999993 2.500000
v 6.999987 1.999993 1.499990
v 6.999987 1.999993 0.555556
v 7.999996 1.999993 1.499990
v 6.999987 4.999990 -2.499998
v 6.999988 3.999997 -2.499998
v 7.999996 6.999994 -2.499998
v 6.999987 6.000000 -2.499998
v 7.999996 6.999994 -1.500004
v -7.000004 6.000000 -1.500005
v 6.999987 6.000000 -1.500005
v 6.999987 3.999996 -1.500005
v -7.000004 2.999987 -1.500005
v -7.000004 -0.000010 -2.500000
v -7.000004 -0.000010 -1.500007
v -8.000014 -0.000010 -1.500007
v -8.000014 1.999994 -1.500006
v -8.000014 -0.000011 1.499990
v -8.000014 1.999993 1.499990
v -7.000004 -0.000011 1.499990
v -7.000004 -0.000011 2.500000
v -8.000014 -0.000011 2.500000
v -8.000014 2.999985 2.500000
v -8.000014 6.999994 -1.500004
v 7.999996 -0.000010 -2.500000
v 6.999987 -0.000010 -2.500000
v 7.999996 -0.000010 -1.500007
v 6.999987 -0.000010 -1.500007
v 7.999996 -0.000011 1.499990
v 6.999987 -0.000011 1.499990
v 7.999996 -0.000011 2.500000
v 6.999987 -0.000011 2.500000
v 7.999996 2.999985 2.500000
vt 0.0066 0.5625
vt 0.1722 0.5278
vt 0.2384 0.5625
vt 0.2848 0.4931
vt 0.3146 0.3079
vt 0.3841 0.4931
vt 0.5132 0.2596
vt 0.5629 0.4931
vt 0.5316 0.4931
vt 0.5960 0.4931
vt 0.1192 0.5764
vt 0.1523 0.6111
vt 0.1523 0.6439
vt 0.4636 0.4931
vt 0.4948 0.4931
vt 0.1523 0.5764
vt 0.4172 0.4931
vt 0.4305 0.4931
vt 0.8212 0.5278
vt 0.7881 0.5278
vt 0.7881 0.0417
vt 0.0728 0.5278
vt 0.1060 0.5278
vt 0.6755 0.5278
vt 0.6093 0.5625
vt 0.6424 0.5278
vt 0.0397 0.5278
vt 0.9934 0.4931
vt 0.9603 0.0069
vt 0.9934 0.0069
vt 0.1722 0.0417
vt 0.2053 0.0417
vt 0.2053 0.5278
vt 0.2517 0.0069
vt 0.2517 0.4931
vt 0.2848 0.0069
vt 0.3841 0.0069
vt 0.7020 0.6806
vt 0.7351 0.6478
vt 0.7351 0.6806
vt 0.6424 0.7153
vt 0.6093 0.7153
vt 0.6093 0.5764
vt 0.4305 0.0069
vt 0.4172 0.0069
vt 0.0066 0.6111
vt 0.0397 0.5764
vt 0.0066 0.6439
vt 0.7020 0.5764
vt 0.7351 0.5764
vt 0.7351 0.6092
vt 0.7020 0.6944
vt 0.7351 0.6944
vt 0.7020 0.7272
vt 0.0066 0.5764
vt 0.0728 0.0417
vt 0.1060 0.0417
vt 0.0066 0.0069
vt 0.0397 0.0417
vt 0.7417 0.0069
vt 0.7086 0.5278
vt 0.7086 0.0417
vt 0.9139 0.0069
vt 0.9470 0.0069
vt 0.9139 0.4931
vt 0.9139 0.5069
vt 0.9470 0.9931
vt 0.9139 0.9931
vt 0.6093 0.0069
vt 0.6755 0.0417
vt 0.6424 0.0417
vt 0.6093 0.5278
vt 0.6093 0.0417
vt 0.0066 0.6825
vt 0.7020 0.7658
vt 0.2384 0.5278
vt 0.1987 0.7292
vt 0.1987 0.7639
vt 0.1656 0.7292
vt 0.1192 0.7153
vt 0.1523 0.6825
vt 0.1523 0.7153
vt 0.6556 0.6806
vt 0.6556 0.6478
vt 0.6887 0.6806
vt 0.1656 0.7986
vt 0.1987 0.7986
vt 0.4305 0.7986
vt 0.4305 0.7639
vt 0.4636 0.7639
vt 0.4636 0.7986
vt 0.3775 0.7986
vt 0.3444 0.7986
vt 0.3444 0.7639
vt 0.3775 0.7639
vt 0.5960 0.5069
vt 0.5960 0.7500
vt 0.5629 0.6806
vt 0.5629 0.6458
vt 0.6093 0.7639
vt 0.6424 0.7292
vt 0.6424 0.7986
vt 0.6093 0.7986
vt 0.1523 0.7500
vt 0.5629 0.7500
vt 0.5960 0.0069
vt 0.6093 0.7292
vt 0.7550 0.5278
vt 0.7550 0.5625
vt 0.6556 0.6092
vt 0.6556 0.5764
vt 0.6887 0.5764
vt 0.8543 0.5278
vt 0.8543 0.5625
vt 0.6556 0.6944
vt 0.6887 0.6944
vt 0.6887 0.7272
vt 0.0397 0.7639
vt 0.0397 0.7986
vt 0.0066 0.7986
vt 0.0066 0.7639
vt 0.0861 0.7639
vt 0.0861 0.7986
vt 0.0530 0.7986
vt 0.0530 0.7639
vt 0.4305 0.6458
vt 0.4636 0.6806
vt 0.4636 0.7500
vt 0.4305 0.7500
vt 0.7417 0.5625
vt 0.3311 0.7639
vt 0.3311 0.7986
vt 0.2980 0.7986
vt 0.2980 0.7639
vt 0.5629 0.5069
vt 0.2384 0.0069
vt 0.9470 0.4931
vt 0.9603 0.4931
vt 0.2384 0.0417
vt 0.7815 0.6944
vt 0.7483 0.7292
vt 0.7483 0.6944
vt 0.0397 0.7153
vt 0.0066 0.7153
vt 0.7351 0.7986
vt 0.7020 0.7986
vt 0.5316 0.0069
vt 0.5629 0.0069
vt 0.7815 0.7639
vt 0.7483 0.7639
vt 0.5563 0.7639
vt 0.5563 0.7986
vt 0.5232 0.7986
vt 0.5232 0.7639
vt 0.7815 0.8125
vt 0.7483 0.8125
vt 0.7483 0.7778
vt 0.7815 0.7778
vt 0.0728 0.7500
vt 0.0066 0.7500
vt 0.3841 0.5764
vt 0.4172 0.5069
vt 0.4172 0.7500
vt 0.3841 0.6111
vt 0.7815 0.5764
vt 0.7815 0.6458
vt 0.7483 0.6111
vt 0.7483 0.5764
vt 0.3841 0.5069
vt 0.8212 0.0417
vt 0.7483 0.6458
vt 0.7550 0.0069
vt 0.7550 0.0417
vt 0.6887 0.7986
vt 0.6556 0.7986
vt 0.6887 0.7658
vt 0.8543 0.0069
vt 0.8543 0.0417
vt 0.4636 0.0069
vt 0.4948 0.0069
vt 0.1325 0.7639
vt 0.1325 0.7986
vt 0.0993 0.7986
vt 0.0993 0.7639
vt 0.2848 0.7639
vt 0.2848 0.7986
vt 0.2517 0.7986
vt 0.2517 0.7639
vt 0.2848 0.5069
vt 0.2848 0.5764
vt 0.2517 0.6111
vt 0.2517 0.5069
vt 0.9470 0.5069
vt 0.5099 0.7639
vt 0.5099 0.7986
vt 0.4768 0.7986
vt 0.4768 0.7639
vt 0.9007 0.5625
vt 0.8676 0.5625
vt 0.8676 0.0069
vt 0.9007 0.0069
vt 0.3841 0.7500
vt 0.0861 0.7500
vt 0.0861 0.7153
vt 0.0728 0.7153
vt 0.1656 0.7153
vt 0.1656 0.5764
vt 0.1987 0.5764
vt 0.1987 0.7153
vt 0.6424 0.5764
vn -0.0000 0.0000 -1.0000
vn 0.0000 -1.0000 -0.0000
vn -0.0000 1.0000 0.0000
vn 1.0000 -0.0000 0.0000
vn 0.0000 0.0000 1.0000
vn -1.0000 -0.0000 0.0000
usemtl palette.048
s off
f 1/1/1 2/2/1 3/3/1
f 4/4/2 5/5/2 6/6/2
f 7/7/3 8/8/3 9/9/3
f 7/7/3 2/10/3 8/8/3
f 10/11/4 11/12/4 12/13/4
f 11/14/3 7/7/3 12/15/3
f 10/11/4 13/16/4 11/12/4
f 5/5/2 14/17/2 6/6/2
f 13/18/3 7/7/3 11/14/3
f 13/19/5 14/20/5 15/21/5
f 1/1/1 16/22/1 17/23/1
f 18/24/5 19/25/5 20/26/5
f 1/1/1 21/27/1 16/22/1
f 22/28/3 16/29/3 18/30/3
f 23/31/1 24/32/1 25/33/1
f 24/34/2 5/5/2 25/35/2
f 26/36/2 27/37/2 5/5/2
f 28/38/2 29/39/2 30/40/2
f 31/41/3 32/42/3 33/43/3
f 34/44/3 7/7/3 13/18/3
f 27/37/2 15/45/2 5/5/2
f 35/46/6 33/47/6 36/48/6
f 37/49/2 35/50/2 36/51/2
f 35/52/4 27/53/4 36/54/4
f 34/55/6 33/47/6 35/46/6
f 38/56/1 39/57/1 17/23/1
f 40/58/1 41/59/1 21/27/1
f 42/60/5 43/61/5 44/62/5
f 39/63/2 45/64/2 17/65/2
f 41/66/2 43/67/2 21/68/2
f 38/56/1 40/58/1 39/57/1
f 31/69/5 22/70/5 45/71/5
f 41/59/1 40/58/1 38/56/1
f 1/1/1 17/23/1 2/2/1
f 20/26/5 19/25/5 46/72/5
f 31/69/5 45/71/5 32/73/5
f 7/7/3 9/9/3 12/15/3
f 36/48/6 33/47/6 29/74/6
f 36/54/4 27/53/4 29/75/4
f 3/3/1 25/33/1 47/76/1
f 48/77/5 4/78/5 49/79/5
f 46/80/4 9/81/4 8/82/4
f 8/83/2 9/84/2 50/85/2
f 3/3/1 2/2/1 25/33/1
f 50/86/5 49/79/5 4/78/5 8/87/5
f 47/88/4 25/89/4 4/90/4 48/91/4
f 49/92/2 3/93/2 47/94/2 48/95/2
f 1/96/6 3/97/6 50/98/6 19/99/6
f 6/100/1 51/101/1 52/102/1 11/103/1
f 2/104/4 46/80/4 8/82/4
f 25/35/2 5/5/2 4/4/2
f 49/105/6 50/98/6 3/97/6
f 2/2/1 23/31/1 25/33/1
f 7/7/3 23/106/3 2/10/3
f 51/101/1 6/100/1 53/107/1
f 54/108/5 14/20/5 55/109/5
f 12/110/2 11/111/2 52/112/2
f 13/19/5 10/113/5 56/114/5
f 6/115/6 11/116/6 12/117/6
f 56/114/5 55/109/5 14/20/5 13/19/5
f 53/118/4 6/119/4 14/120/4 54/121/4
f 55/122/2 51/123/2 53/124/2 54/125/2
f 56/126/6 52/127/6 51/128/6 55/129/6
f 19/25/5 18/24/5 43/61/5 57/130/5
f 5/5/2 15/45/2 14/17/2
f 16/131/4 21/132/4 43/133/4 18/134/4
f 19/99/6 57/135/6 1/96/6
f 20/26/5 45/71/5 22/70/5 18/24/5
f 40/58/1 58/136/1 23/31/1 39/57/1
f 16/22/1 38/56/1 17/23/1
f 17/65/2 45/64/2 20/137/2
f 22/28/3 38/138/3 16/29/3
f 59/139/1 24/32/1 58/136/1
f 60/140/5 26/141/5 61/142/5
f 32/143/6 30/144/6 29/74/6 33/47/6
f 26/145/4 30/146/4 29/75/4 27/53/4
f 7/7/3 29/147/3 30/148/3
f 24/32/1 23/31/1 58/136/1
f 26/141/5 60/140/5 28/149/5 30/150/5
f 24/151/6 59/152/6 61/153/6 26/154/6
f 24/34/2 26/36/2 5/5/2
f 61/155/2 59/156/2 58/157/2 60/158/2
f 39/159/6 23/160/6 30/144/6 32/143/6
f 28/161/4 58/162/4 40/163/4 31/164/4
f 37/165/1 62/166/1 27/167/1 35/168/1
f 58/162/4 28/161/4 60/169/4
f 7/7/3 30/148/3 23/106/3
f 34/170/5 13/19/5 15/21/5
f 63/171/1 27/167/1 62/166/1
f 64/172/5 15/21/5 65/173/5
f 8/174/6 4/175/6 6/115/6 9/176/6
f 66/177/5 33/178/5 34/170/5
f 35/179/3 36/180/3 7/7/3
f 15/21/5 64/172/5 66/177/5 34/170/5
f 27/181/6 63/182/6 65/183/6 15/184/6
f 65/185/2 63/186/2 62/187/2 64/188/2
f 62/189/4 37/190/4 66/191/4 64/192/4
f 44/62/5 22/70/5 31/69/5 42/60/5
f 34/44/3 35/179/3 7/7/3
f 41/66/2 44/193/2 43/67/2
f 41/194/6 38/195/6 22/196/6 44/197/6
f 1/198/3 57/199/3 42/200/3 40/201/3
f 42/202/4 31/164/4 40/163/4
f 1/1/1 40/58/1 21/27/1
f 42/60/5 57/130/5 43/61/5
f 46/80/4 2/104/4 17/203/4 20/204/4
f 19/99/6 50/98/6 52/127/6 56/126/6
f 32/143/6 45/205/6 39/159/6
f 9/81/4 46/80/4 10/11/4 12/13/4
f 52/112/2 50/85/2 9/84/2 12/110/2
f 19/206/3 56/207/3 10/208/3 46/209/3
f 28/161/4 31/164/4 66/191/4 37/190/4
f 6/115/6 12/117/6 9/176/6
f 36/51/2 29/39/2 28/38/2 37/49/2
f 66/210/3 31/41/3 33/43/3
f 36/180/3 29/147/3 7/7/3
