# Blender v2.78 (sub 0) OBJ File: ''
# www.blender.org
mtllib propTree1.mtl
o copy_propTree1.001
v -1.000010 5.999997 0.999995
v -1.000010 5.999997 -1.000008
v -1.000010 -0.000014 -1.000010
v 0.999993 5.999997 -1.000008
v -3.000014 6.999990 -2.000001
v -3.000014 8.000000 -1.000008
v -3.000014 8.000000 -2.000001
v -3.000014 6.999990 1.999989
v -3.000014 8.000000 0.999996
v -1.000010 8.000002 -3.000012
v 1.999987 6.999990 -3.000012
v -2.000003 6.999990 -3.000012
v -2.000003 8.000002 -3.000012
v -2.000003 8.000000 -2.000001
v -3.000014 8.000002 -3.000012
v -1.000010 -0.000014 0.999993
v 0.999993 -0.000014 0.999993
v -2.000003 8.000000 2.999999
v -2.000003 6.999990 2.999999
v -0.555555 6.999990 2.999999
v -2.000003 8.000000 1.999989
v -2.000003 6.999990 1.999989
v -3.000014 11.999992 -3.000010
v -2.000003 8.999996 -3.000012
v -4.000007 8.000000 -1.000008
v -4.000007 8.999994 0.999996
v -4.000007 8.999994 -1.000008
v -3.000014 8.999994 -2.000000
v -3.000014 8.999994 -1.000008
v -4.000007 8.999994 -2.000000
v -4.000007 10.999998 -1.999999
v -3.000014 10.999998 -1.000006
v -4.000007 10.999998 -1.000006
v -4.000007 10.999998 0.999997
v -4.000007 11.999990 -1.000006
v -1.000010 8.999996 -3.000012
v -2.000003 8.999996 -4.000005
v -2.000003 11.000000 -4.000003
v -1.000010 11.999992 -4.000003
v 0.999993 11.000000 -4.000003
v -1.000010 11.000000 -4.000003
v -1.000010 11.000000 -3.000010
v -2.000003 11.000000 -3.000010
v -3.000014 13.999994 0.999998
v -3.000014 13.999994 -1.000006
v -3.000014 13.000000 -1.000006
v -2.000003 13.000000 -1.000006
v -1.000010 13.000000 -1.999999
v -1.000010 13.999996 -3.000010
v -1.000010 13.000002 -3.000010
v -2.000003 14.999988 -1.999998
v 0.999993 13.999994 -1.999999
v -1.000010 13.999994 -1.999999
v -2.000003 13.999994 0.999998
v -2.000003 13.999994 -1.000006
v -1.000010 11.999992 -3.000010
v 0.999993 11.999992 -3.000010
v -3.000014 8.999994 0.999996
v -4.000007 8.999994 1.999989
v -3.000014 10.999998 1.999990
v -3.000014 10.999998 0.999997
v -4.000007 10.999998 1.999990
v -1.000010 10.999996 3.999994
v -2.000003 8.999992 3.999993
v -1.000010 8.999992 3.999993
v -1.000010 8.999992 3.000000
v -1.000010 8.000000 3.000000
v -2.000003 10.999996 3.999994
v -2.000003 10.999996 3.000002
v -2.000003 8.999992 3.000000
v 0.999993 11.999990 3.999994
v -1.000010 11.999990 3.999994
v 0.999993 10.999996 3.999994
v -1.000010 11.999990 3.000002
v -2.000003 11.999990 3.000001
v -1.000010 10.999996 3.000001
v -3.000014 11.999990 3.000001
v -3.000014 8.999994 1.999989
v -2.000003 11.999990 1.999991
v -3.000014 11.999990 1.999991
v -3.000014 13.000000 0.999997
v -3.000014 11.999990 -1.000006
v -2.000003 13.000000 0.999997
v -1.000010 12.999998 3.000001
v -1.000010 13.999992 3.000002
v -1.000010 13.000000 1.999991
v 0.999993 12.999998 3.000001
v -1.000010 14.999988 0.999998
v -1.000010 15.999996 0.999999
v -1.000010 14.999988 -1.000005
v -2.000003 14.999988 1.999992
v -1.000010 13.999994 1.999991
v 0.999993 13.999994 1.999991
v -2.000003 13.000000 1.999991
v -2.000003 12.999998 3.000001
v 0.999993 -0.000014 -1.000010
v 1.999987 6.999990 1.999989
v 1.999987 5.999999 -2.000001
v 1.999987 6.999990 -2.000001
v 2.999998 8.000000 0.999996
v 2.999997 6.999990 -2.000001
v 2.999998 8.000000 -1.000008
v 1.999987 8.000000 -2.000001
v 0.999993 5.999997 0.999995
v 1.999987 8.000000 2.999999
v 1.999987 6.999990 2.999999
v 1.999987 8.000000 1.999989
v 1.111111 6.999990 2.999999
v 0.999993 8.000000 3.000000
v 0.999993 8.000000 3.999993
v 0.000000 8.000000 2.999999
v 2.999997 6.999990 0.555557
v 2.999997 6.999990 1.999989
v 2.999997 8.000000 2.999999
v 2.999997 8.000000 1.999989
v 1.999987 8.999996 -4.000005
v 0.999993 8.999996 -3.000012
v 0.999993 8.999996 -4.000005
v 1.999987 8.999996 -3.000012
v 1.999987 11.000000 -4.000003
v 0.999993 11.000000 -3.000010
v 2.999997 8.999994 -1.000008
v 2.999997 8.000000 -2.000001
v 2.999998 8.999994 -2.000000
v 3.999990 8.999994 0.999996
v 3.999990 8.000000 -1.000008
v 3.999990 8.999994 -1.000008
v 3.999990 10.999998 -1.000006
v 3.999990 8.999994 -2.000000
v 2.999997 11.999990 -1.999999
v 2.999997 11.999992 -3.000010
v 1.999987 11.999990 -1.999999
v 3.999990 10.999998 -1.999999
v 2.999997 10.999998 -1.999999
v 2.999997 10.999998 -1.000006
v 2.999998 11.999990 -1.000006
v 3.999990 11.999990 -1.000006
v 3.999990 10.999998 0.999997
v 1.999987 8.000002 -3.000012
v 2.999997 8.000002 -3.000012
v -1.000010 8.999996 -4.000005
v 0.999993 13.999996 -3.000010
v 0.999993 13.000002 -3.000009
v 2.999997 13.000000 -1.000006
v 2.999997 13.000000 -1.999999
v 1.999987 13.000000 -1.000006
v 2.999997 13.999994 -1.000006
v 0.999993 8.999992 3.000000
v 1.999987 8.999992 3.000000
v 1.999987 8.999992 3.999993
v 1.999987 11.999990 3.000001
v 0.999993 10.999996 3.000001
v 1.999987 10.999996 3.000002
v 0.999993 11.999990 3.000002
v 1.999987 10.999996 3.999994
v 2.999997 8.999994 0.999996
v 3.999990 8.000000 0.999996
v 3.999990 8.999994 1.999989
v 2.999998 8.999994 1.999989
v 3.999990 10.999998 1.999990
v 2.999997 11.999990 3.000001
v 2.999997 10.999998 1.999990
v 2.999997 10.999998 0.999997
v 2.999998 11.999990 0.999997
v 3.999990 11.999990 0.999997
v 2.999997 11.999990 1.999991
v 2.999997 13.000000 1.999991
v 1.999987 11.999990 1.999991
v 1.999987 12.999998 3.000001
v 0.999993 13.000000 1.999991
v 2.999997 13.999994 0.999998
v 1.999987 13.000000 0.999997
v 2.999997 13.000000 0.999997
v 1.999987 13.000000 1.999991
v 0.999993 13.999992 3.000002
v -2.000003 5.999997 1.999989
v 1.999987 5.999997 1.999989
v 1.999987 14.999988 -1.999998
v 0.999993 15.999996 -1.000004
v 0.999993 14.999988 -1.000005
v 0.999993 15.999996 0.999999
v 0.999993 14.999988 0.999998
v -3.000014 8.000000 2.999999
v 0.999993 8.999992 3.999993
v -1.000010 8.000000 3.999993
v 1.999987 14.999988 1.999992
v 1.999987 13.999994 0.999998
v -4.000007 8.000000 0.999996
v -2.000003 6.999990 -2.000001
v -1.000010 8.000002 -4.000005
v 0.999993 8.000002 -4.000005
v 0.999993 8.000002 -3.000012
v -3.000014 8.000000 1.999989
v -2.000003 5.999999 -2.000001
v -3.000014 10.999998 -1.999999
v -3.000014 11.999990 -1.999999
v -2.000003 11.999990 -1.999999
v -2.000003 11.999992 -3.000010
v -4.000007 11.999990 0.999997
v -3.000014 11.999990 0.999997
v 0.999993 11.999992 -4.000003
v -3.000014 13.000000 -1.999999
v -2.000003 13.000000 -1.999999
v -2.000003 13.000002 -3.000010
v -1.000010 15.999996 -1.000004
v -3.000014 13.000000 1.999991
v 1.999987 11.999992 -3.000010
v 1.999987 11.000000 -3.000010
v 0.999993 13.000000 -1.999999
v 1.999987 13.000000 -1.999999
v 1.999987 13.000002 -3.000010
v 1.999987 13.999994 -1.000006
vt 0.6304 0.0956
vt 0.7029 0.0956
vt 0.7029 0.3162
vt 0.6304 0.3309
vt 0.7029 0.3309
vt 0.6304 0.5515
vt 0.4203 0.2647
vt 0.3841 0.2279
vt 0.4203 0.2279
vt 0.2754 0.2647
vt 0.3116 0.2279
vt 0.3116 0.5000
vt 0.4203 0.5368
vt 0.2754 0.5368
vt 0.8913 0.2206
vt 0.8551 0.2206
vt 0.8913 0.1838
vt 0.6304 0.7868
vt 0.6304 0.5662
vt 0.7029 0.5662
vt 0.0435 0.3162
vt 0.0435 0.2794
vt 0.0958 0.2794
vt 0.8696 0.5294
vt 0.9058 0.4926
vt 0.9058 0.5294
vt 0.2391 0.3529
vt 0.2754 0.4632
vt 0.2391 0.5000
vt 0.6159 0.3676
vt 0.5797 0.4412
vt 0.5797 0.3676
vt 0.8188 0.9853
vt 0.8188 0.9485
vt 0.8551 0.9853
vt 0.2101 0.8015
vt 0.2464 0.8750
vt 0.2101 0.8750
vt 0.4130 0.9412
vt 0.4493 0.9779
vt 0.4130 0.9779
vt 0.5072 0.4412
vt 0.4710 0.3676
vt 0.5072 0.3676
vt 0.1594 0.9412
vt 0.1957 0.9412
vt 0.1957 0.9779
vt 0.1087 0.8750
vt 0.1449 0.8015
vt 0.1449 0.8750
vt 0.1667 0.6618
vt 0.2029 0.5882
vt 0.2029 0.6618
vt 0.7174 0.9559
vt 0.7536 0.9926
vt 0.7174 0.9926
vt 0.2754 0.5000
vt 0.2029 0.6985
vt 0.2754 0.6985
vt 0.5072 0.3309
vt 0.5797 0.3309
vt 0.4203 0.1912
vt 0.4565 0.2279
vt 0.3116 0.0074
vt 0.3841 0.0074
vt 0.3841 0.0441
vt 0.9420 0.0074
vt 0.9058 0.0441
vt 0.9058 0.0074
vt 0.8188 0.8971
vt 0.8551 0.9338
vt 0.8188 0.9338
vt 0.5435 0.6544
vt 0.5072 0.7647
vt 0.5072 0.6912
vt 0.7536 0.2059
vt 0.7899 0.3162
vt 0.7536 0.2794
vt 0.3116 0.3529
vt 0.3116 0.3162
vt 0.3841 0.3529
vt 0.9203 0.9926
vt 0.9565 0.9559
vt 0.9565 0.9926
vt 0.5797 0.4779
vt 0.9928 0.0074
vt 0.9928 0.0441
vt 0.9565 0.0074
vt 0.1159 0.5882
vt 0.1522 0.6618
vt 0.1159 0.6618
vt 0.0797 0.3529
vt 0.0797 0.3162
vt 0.7681 0.7426
vt 0.8043 0.7426
vt 0.8043 0.8162
vt 0.0435 0.5515
vt 0.1159 0.5515
vt 0.0435 0.5882
vt 0.0797 0.4632
vt 0.0435 0.4632
vt 0.0797 0.4265
vt 0.0435 0.4265
vt 0.2971 0.9779
vt 0.2609 0.9779
vt 0.2609 0.9412
vt 0.5725 0.9559
vt 0.6087 0.9559
vt 0.6087 0.9926
vt 0.8551 0.0074
vt 0.8913 0.0809
vt 0.8551 0.0809
vt 0.0072 0.4632
vt 0.7536 0.8897
vt 0.7174 0.8897
vt 0.7536 0.8162
vt 0.8551 0.8824
vt 0.8188 0.8824
vt 0.8188 0.8456
vt 0.3116 0.0441
vt 0.3841 0.0809
vt 0.9420 0.0956
vt 0.9058 0.0956
vt 0.9058 0.0588
vt 0.4710 0.9044
vt 0.5072 0.9044
vt 0.4710 0.9412
vt 0.0797 0.5368
vt 0.0797 0.5000
vt 0.1522 0.5000
vt 0.8188 0.7574
vt 0.8551 0.7574
vt 0.8188 0.8309
vt 0.5797 0.1176
vt 0.5797 0.0441
vt 0.6159 0.1544
vt 0.7174 0.0074
vt 0.7536 0.0441
vt 0.7536 0.1176
vt 0.9420 0.2721
vt 0.9058 0.2721
vt 0.9058 0.2353
vt 0.2609 0.9265
vt 0.2609 0.8897
vt 0.2971 0.9265
vt 0.0942 0.7868
vt 0.0942 0.7132
vt 0.1667 0.7868
vt 0.8043 0.6397
vt 0.7681 0.4926
vt 0.8043 0.4926
vt 0.1522 0.2279
vt 0.0435 0.2647
vt 0.0797 0.2279
vt 0.8696 0.7353
vt 0.9058 0.6985
vt 0.9058 0.7353
vt 0.7029 0.7868
vt 0.1087 0.9265
vt 0.1087 0.8897
vt 0.1449 0.9265
vt 0.7536 0.4926
vt 0.7536 0.5253
vt 0.7174 0.4926
vt 0.1884 0.2794
vt 0.1884 0.3162
vt 0.1562 0.2794
vt 0.5580 0.8897
vt 0.5217 0.8897
vt 0.5580 0.8529
vt 0.7174 0.7075
vt 0.7174 0.6544
vt 0.7536 0.8015
vt 0.1884 0.2647
vt 0.1361 0.2647
vt 0.8043 0.8824
vt 0.8043 0.9191
vt 0.7681 0.9191
vt 0.7681 0.8309
vt 0.8043 0.8309
vt 0.8043 0.8676
vt 0.7681 0.8676
vt 0.2101 0.9779
vt 0.2464 0.9412
vt 0.2464 0.9779
vt 0.0942 0.8750
vt 0.0580 0.8750
vt 0.0580 0.8015
vt 0.5580 0.9559
vt 0.5580 0.9926
vt 0.5217 0.9926
vt 0.0797 0.1912
vt 0.0435 0.2279
vt 0.0435 0.1912
vt 0.5072 0.2794
vt 0.4710 0.2059
vt 0.5072 0.2059
vt 0.5797 0.2059
vt 0.6667 0.9412
vt 0.6667 0.9779
vt 0.6304 0.9412
vt 0.8913 0.2353
vt 0.8913 0.2721
vt 0.8551 0.2353
vt 0.1449 0.9779
vt 0.1087 0.9779
vt 0.1087 0.9412
vt 0.9565 0.0588
vt 0.9928 0.0588
vt 0.9565 0.0956
vt 0.0435 0.0809
vt 0.0797 0.1176
vt 0.0435 0.1176
vt 0.6159 0.2059
vt 0.5797 0.2794
vt 0.4203 0.5000
vt 0.4203 0.4632
vt 0.4565 0.5000
vt 0.2754 0.5882
vt 0.2754 0.6618
vt 0.0072 0.2279
vt 0.0072 0.0809
vt 0.5072 0.1691
vt 0.5797 0.1691
vt 0.3841 0.2794
vt 0.3841 0.3162
vt 0.3261 0.9265
vt 0.3623 0.9265
vt 0.3261 0.9632
vt 0.9420 0.1471
vt 0.9058 0.1471
vt 0.9058 0.1103
vt 0.9058 0.7500
vt 0.9058 0.7868
vt 0.8696 0.7868
vt 0.1522 0.3529
vt 0.1522 0.3162
vt 0.9203 0.7868
vt 0.9203 0.7500
vt 0.9565 0.7868
vt 0.1884 0.4632
vt 0.1522 0.4265
vt 0.1884 0.4265
vt 0.8913 0.0074
vt 0.0580 0.9779
vt 0.0580 0.9412
vt 0.0942 0.9412
vt 0.0942 0.9779
vt 0.9565 0.6838
vt 0.9203 0.6838
vt 0.9565 0.6471
vt 0.8696 0.9853
vt 0.8696 0.9485
vt 0.9058 0.9485
vt 0.6087 0.8897
vt 0.5725 0.8162
vt 0.6087 0.8162
vt 0.2246 0.4632
vt 0.1884 0.3529
vt 0.2246 0.3162
vt 0.4710 0.9559
vt 0.5072 0.9559
vt 0.4710 0.9926
vt 0.1594 0.8015
vt 0.1957 0.8015
vt 0.1594 0.8750
vt 0.1884 0.0809
vt 0.1522 0.1176
vt 0.1884 0.0441
vt 0.1522 0.0809
vt 0.2246 0.0809
vt 0.1884 0.1176
vt 0.0072 0.5882
vt 0.0072 0.6618
vt 0.7681 0.7279
vt 0.8043 0.6544
vt 0.8043 0.7279
vt 0.2246 0.2279
vt 0.1884 0.2279
vt 0.1884 0.1912
vt 0.8913 0.3235
vt 0.8551 0.3235
vt 0.8913 0.2868
vt 0.9420 0.3897
vt 0.9058 0.4265
vt 0.9058 0.3897
vt 0.9420 0.1838
vt 0.9058 0.2206
vt 0.9058 0.1838
vt 0.7174 0.9044
vt 0.7536 0.9412
vt 0.7174 0.9412
vt 0.8696 0.8971
vt 0.9058 0.9338
vt 0.8696 0.9338
vt 0.1957 0.8897
vt 0.1594 0.9265
vt 0.1594 0.8897
vt 0.1522 0.0441
vt 0.1522 0.4632
vt 0.4130 0.9265
vt 0.4493 0.8897
vt 0.4493 0.9265
vt 0.8406 0.0074
vt 0.8043 0.1544
vt 0.8043 0.0074
vt 0.7536 0.5866
vt 0.7174 0.6397
vt 0.4710 0.0074
vt 0.6159 0.0074
vt 0.8551 0.5662
vt 0.8188 0.5662
vt 0.8188 0.4926
vt 0.8188 0.6544
vt 0.8551 0.5809
vt 0.8551 0.6544
vt 0.5072 0.1176
vt 0.0435 0.3529
vt 0.0072 0.3162
vt 0.0435 0.6618
vt 0.1159 0.6985
vt 0.0435 0.6985
vt 0.1522 0.1912
vt 0.4710 0.1544
vt 0.1522 0.0074
vt 0.0797 0.0441
vt 0.0797 0.0074
vt 0.7174 0.3309
vt 0.7536 0.3676
vt 0.7174 0.4779
vt 0.1667 0.7132
vt 0.6304 0.3162
vt 0.7029 0.5515
vt 0.8551 0.1838
vt 0.2971 0.8015
vt 0.2971 0.8750
vt 0.2609 0.8750
vt 0.2609 0.8015
vt 0.8696 0.5441
vt 0.9058 0.5441
vt 0.9058 0.5809
vt 0.8696 0.5809
vt 0.6667 0.8750
vt 0.6304 0.8750
vt 0.6304 0.8015
vt 0.6667 0.8015
vt 0.3841 0.5000
vt 0.8696 0.6838
vt 0.8696 0.6471
vt 0.9058 0.6471
vt 0.9058 0.6838
vt 0.8043 0.3162
vt 0.8406 0.1691
vt 0.8406 0.3162
vt 0.8043 0.4779
vt 0.8043 0.3309
vt 0.8406 0.4779
vt 0.5580 0.8015
vt 0.5580 0.6544
vt 0.5942 0.8015
vt 0.4130 0.6985
vt 0.4493 0.5515
vt 0.4493 0.6985
vt 0.5942 0.6544
vt 0.2754 0.2279
vt 0.6304 0.0074
vt 0.6667 0.0074
vt 0.6667 0.0441
vt 0.6304 0.0441
vt 0.5217 0.8162
vt 0.5580 0.8162
vt 0.8043 0.1691
vt 0.8406 0.1544
vt 0.8696 0.4926
vt 0.7536 0.6397
vt 0.1159 0.3162
vt 0.4565 0.0809
vt 0.4203 0.1176
vt 0.3841 0.1912
vt 0.8551 0.9485
vt 0.9565 0.7353
vt 0.9203 0.7353
vt 0.9203 0.6985
vt 0.9565 0.6985
vt 0.8551 0.4265
vt 0.8551 0.3897
vt 0.8913 0.3897
vt 0.8913 0.4265
vt 0.4203 0.0809
vt 0.4130 0.8750
vt 0.4130 0.8015
vt 0.4493 0.8015
vt 0.4493 0.8750
vt 0.2754 0.3529
vt 0.2754 0.3897
vt 0.4710 0.4412
vt 0.4493 0.9412
vt 0.3841 0.1176
vt 0.9928 0.3750
vt 0.9565 0.3750
vt 0.9565 0.3382
vt 0.9928 0.3382
vt 0.3116 0.4632
vt 0.1594 0.9779
vt 0.9565 0.9044
vt 0.9565 0.9412
vt 0.9203 0.9412
vt 0.9203 0.9044
vt 0.3116 0.6618
vt 0.3116 0.3897
vt 0.7536 0.9559
vt 0.1667 0.5882
vt 0.8913 0.1691
vt 0.8551 0.1691
vt 0.8551 0.0956
vt 0.8913 0.0956
vt 0.9928 0.2868
vt 0.9928 0.3235
vt 0.9565 0.3235
vt 0.9565 0.2868
vt 0.9565 0.5294
vt 0.9203 0.5294
vt 0.9203 0.4926
vt 0.9565 0.4926
vt 0.1087 0.8015
vt 0.2464 0.8015
vt 0.9058 0.3235
vt 0.9058 0.2868
vt 0.9420 0.2868
vt 0.9420 0.3235
vt 0.7174 0.3162
vt 0.7174 0.2794
vt 0.4710 0.6912
vt 0.4710 0.6544
vt 0.0072 0.7868
vt 0.0072 0.7132
vt 0.0797 0.7132
vt 0.0797 0.7868
vt 0.8551 0.8309
vt 0.8551 0.4926
vt 0.6667 0.8897
vt 0.6667 0.9265
vt 0.6304 0.9265
vt 0.6304 0.8897
vt 0.9420 0.0441
vt 0.8551 0.8971
vt 0.2754 0.3162
vt 0.4203 0.0441
vt 0.0435 0.9265
vt 0.0072 0.9265
vt 0.0072 0.8897
vt 0.0435 0.8897
vt 0.3116 0.1912
vt 0.2754 0.1912
vt 0.9203 0.8529
vt 0.9565 0.8529
vt 0.9565 0.8897
vt 0.9203 0.8897
vt 0.2754 0.1176
vt 0.2391 0.2279
vt 0.2391 0.0809
vt 0.9203 0.9559
vt 0.7174 0.8162
vt 0.2754 0.0809
vt 0.3116 0.0809
vt 0.3116 0.1176
vt 0.9565 0.0441
vt 0.9565 0.3897
vt 0.9928 0.3897
vt 0.9928 0.4265
vt 0.9565 0.4265
vt 0.7681 0.9338
vt 0.8043 0.9338
vt 0.8043 0.9706
vt 0.7681 0.9706
vt 0.8551 0.8456
vt 0.0072 0.9412
vt 0.0435 0.9412
vt 0.0072 0.9779
vt 0.5725 0.9044
vt 0.6087 0.9044
vt 0.6087 0.9412
vt 0.5725 0.9412
vt 0.7681 0.8162
vt 0.0435 0.9779
vt 0.2971 0.9412
vt 0.5725 0.9926
vt 0.5072 0.4779
vt 0.1522 0.5882
vt 0.7174 0.2059
vt 0.7174 0.1691
vt 0.7899 0.1691
vt 0.7899 0.0074
vt 0.7899 0.0441
vt 0.2754 0.0441
vt 0.9420 0.2353
vt 0.8188 0.5809
vt 0.9420 0.0588
vt 0.5072 0.9412
vt 0.0580 0.8897
vt 0.0942 0.8897
vt 0.0942 0.9265
vt 0.0580 0.9265
vt 0.8551 0.3750
vt 0.8551 0.3382
vt 0.8913 0.3382
vt 0.8913 0.3750
vt 0.0435 0.5000
vt 0.2971 0.8897
vt 0.3986 0.7721
vt 0.3261 0.5515
vt 0.3986 0.5515
vt 0.3623 0.8750
vt 0.3623 0.9118
vt 0.3261 0.9118
vt 0.3261 0.8750
vt 0.0072 0.8015
vt 0.0435 0.8015
vt 0.0435 0.8750
vt 0.0072 0.8750
vt 0.8696 0.6985
vt 0.3261 0.7721
vt 0.3841 0.4632
vt 0.7681 0.8824
vt 0.7536 0.6544
vt 0.1449 0.8897
vt 0.9565 0.5441
vt 0.9565 0.5809
vt 0.9203 0.5809
vt 0.9203 0.5441
vt 0.4203 0.3529
vt 0.4203 0.3897
vt 0.3841 0.3897
vt 0.2101 0.9412
vt 0.9928 0.2353
vt 0.9928 0.2721
vt 0.9565 0.2721
vt 0.9565 0.2353
vt 0.5217 0.9559
vt 0.9565 0.8382
vt 0.9203 0.8382
vt 0.9203 0.8015
vt 0.9565 0.8015
vt 0.5072 0.8897
vt 0.4710 0.8897
vt 0.4710 0.8162
vt 0.5072 0.8162
vt 0.2754 0.5515
vt 0.2029 0.5515
vt 0.6304 0.9779
vt 0.6159 0.2794
vt 0.1957 0.8750
vt 0.0797 0.0809
vt 0.1449 0.9412
vt 0.9928 0.0956
vt 0.8551 0.2721
vt 0.4565 0.3529
vt 0.0942 0.8015
vt 0.9058 0.3750
vt 0.9058 0.3382
vt 0.9420 0.3382
vt 0.9420 0.3750
vt 0.7899 0.4779
vt 0.7536 0.4412
vt 0.7899 0.4412
vt 0.9058 0.8456
vt 0.8696 0.8824
vt 0.8696 0.8456
vt 0.4710 0.8015
vt 0.4710 0.7647
vt 0.5435 0.8015
vt 0.8551 0.7426
vt 0.8188 0.7426
vt 0.8188 0.6691
vt 0.8551 0.6691
vt 0.2464 0.8897
vt 0.2464 0.9265
vt 0.2101 0.9265
vt 0.2101 0.8897
vt 0.5072 0.0441
vt 0.3623 0.9632
vt 0.9420 0.1103
vt 0.9058 0.8824
vt 0.4203 0.3162
vt 0.9203 0.5956
vt 0.9565 0.5956
vt 0.9565 0.6324
vt 0.9203 0.6324
vt 0.0435 0.0441
vt 0.8696 0.7500
vt 0.9565 0.1838
vt 0.9928 0.1838
vt 0.9928 0.2206
vt 0.9565 0.2206
vt 0.7681 0.6544
vt 0.9565 0.7500
vt 0.9565 0.1103
vt 0.9928 0.1103
vt 0.9928 0.1471
vt 0.9565 0.1471
vt 0.9058 0.9853
vt 0.5072 0.9926
vt 0.5797 0.3162
vt 0.5072 0.3162
vt 0.9058 0.6324
vt 0.8696 0.6324
vt 0.8696 0.5956
vt 0.9058 0.5956
vt 0.8551 0.2868
vt 0.7899 0.3676
vt 0.7899 0.3309
vt 0.5725 0.8897
vt 0.7899 0.1176
vt 0.7899 0.1544
vt 0.7174 0.1544
vt 0.9058 0.8971
vt 0.7536 0.9044
vt 0.9420 0.2206
vt 0.9420 0.4265
vt 0.5797 0.6029
vt 0.6159 0.6397
vt 0.4710 0.6397
vt 0.5072 0.6029
vt 0.4130 0.8897
vt 0.1884 0.5000
vt 0.1957 0.9265
vt 0.4130 0.5515
vt 0.6159 0.4926
vt 0.5797 0.5294
vt 0.5072 0.5294
vt 0.4710 0.4926
vt 0.8406 0.3309
vt 0.4130 0.7132
vt 0.4493 0.7132
vt 0.4493 0.7868
vt 0.4130 0.7868
vt 0.3116 0.2794
vt 0.2681 0.7868
vt 0.2319 0.7868
vt 0.2319 0.7132
vt 0.2681 0.7132
vt 0.1522 0.5368
vt 0.3116 0.5882
vt 0.6159 0.4412
vt 0.4710 0.2794
vt 0.9203 0.6471
vt 0.1812 0.7868
vt 0.1812 0.7132
vt 0.2174 0.7132
vt 0.2174 0.7868
vt 0.7681 0.6397
vt 0.3623 0.7868
vt 0.3623 0.8603
vt 0.3261 0.8603
vt 0.3261 0.7868
vt 0.7174 0.8015
vn -1.0000 0.0000 0.0000
vn 0.0000 0.0000 -1.0000
vn 0.0000 -1.0000 -0.0000
vn 0.0000 -0.0000 1.0000
vn 0.0000 1.0000 0.0000
vn 1.0000 -0.0000 0.0000
usemtl palette.053
s off
f 1/1/1 2/2/1 3/3/1
f 2/4/2 4/5/2 3/6/2
f 5/7/1 6/8/1 7/9/1
f 8/10/1 9/11/1 6/8/1
f 8/10/1 6/8/1 5/7/1
f 10/12/2 11/13/2 12/14/2
f 13/15/3 14/16/3 15/17/3
f 1/18/4 16/19/4 17/20/4
f 18/21/4 19/22/4 20/23/4
f 19/24/1 21/25/1 22/26/1
f 23/27/2 24/28/2 15/29/2
f 25/30/1 26/31/1 27/32/1
f 28/33/3 29/34/3 30/35/3
f 31/36/2 28/37/2 30/38/2
f 32/39/5 31/40/5 33/41/5
f 34/42/1 35/43/1 33/44/1
f 36/45/3 24/46/3 37/47/3
f 24/48/1 38/49/1 37/50/1
f 39/51/2 40/52/2 41/53/2
f 42/54/5 38/55/5 43/56/5
f 24/28/2 13/57/2 15/29/2
f 38/58/2 41/53/2 37/59/2
f 33/44/1 31/60/1 30/61/1
f 7/9/1 28/62/1 15/63/1
f 44/64/1 45/65/1 46/66/1
f 45/67/2 47/68/2 46/69/2
f 48/70/1 49/71/1 50/72/1
f 51/73/2 52/74/2 53/75/2
f 54/76/1 51/77/1 55/78/1
f 56/79/2 50/80/2 57/81/2
f 58/82/3 59/83/3 26/84/3
f 59/85/1 34/42/1 26/31/1
f 60/86/5 61/87/5 62/88/5
f 63/89/4 64/90/4 65/91/4
f 66/92/4 18/21/4 67/93/4
f 68/94/1 69/95/1 70/96/1
f 71/97/4 72/98/4 73/99/4
f 74/100/4 75/101/4 76/102/4
f 76/102/4 75/101/4 69/103/4
f 73/99/4 72/98/4 63/89/4
f 76/104/5 69/105/5 68/106/5
f 72/107/1 74/108/1 76/109/1
f 71/110/5 74/111/5 72/112/5
f 75/101/4 77/113/4 69/103/4
f 60/114/4 62/115/4 78/116/4
f 79/117/5 80/118/5 77/119/5
f 81/120/1 44/64/1 82/121/1
f 44/122/4 81/123/4 83/124/4
f 84/125/1 85/126/1 86/127/1
f 85/128/4 84/129/4 87/130/4
f 88/131/1 89/132/1 90/133/1
f 88/134/5 90/135/5 91/136/5
f 91/137/4 92/138/4 93/139/4
f 86/140/5 94/141/5 95/142/5
f 75/143/1 95/144/1 79/145/1
f 84/129/4 75/101/4 74/100/4
f 96/146/3 17/147/3 3/148/3
f 97/149/6 98/150/6 99/151/6
f 100/152/6 101/153/6 102/154/6
f 103/155/2 101/156/2 99/157/2
f 104/158/4 1/18/4 17/20/4
f 105/159/6 106/160/6 107/161/6
f 106/162/3 108/163/3 97/164/3
f 106/165/4 105/166/4 108/167/4
f 109/168/3 110/169/3 111/170/3
f 112/171/3 113/172/3 99/173/3
f 113/174/6 112/175/6 100/152/6
f 107/176/4 97/177/4 113/178/4
f 114/179/3 105/180/3 107/181/3
f 115/182/3 114/179/3 107/181/3
f 116/183/3 117/184/3 118/185/3
f 119/186/6 116/187/6 120/188/6
f 120/189/5 40/190/5 121/191/5
f 122/192/6 123/193/6 124/194/6
f 125/195/6 126/196/6 127/197/6
f 125/195/6 127/197/6 128/198/6
f 124/199/3 129/200/3 122/201/3
f 130/202/5 131/203/5 132/204/5
f 133/205/5 134/206/5 135/207/5
f 136/208/2 137/209/2 135/210/2
f 130/211/6 135/212/6 134/213/6
f 137/214/6 138/215/6 128/198/6
f 139/216/2 119/217/2 140/218/2
f 40/52/2 118/219/2 141/220/2
f 134/213/6 140/221/6 131/222/6
f 128/198/6 129/223/6 133/224/6
f 142/225/2 143/226/2 50/80/2
f 144/227/5 145/228/5 146/229/5
f 147/230/2 144/231/2 146/232/2
f 145/233/2 130/234/2 132/235/2
f 148/236/4 109/237/4 105/166/4
f 149/238/3 150/239/3 148/240/3
f 151/241/4 152/242/4 153/243/4
f 71/110/5 154/244/5 74/111/5
f 155/245/5 153/246/5 152/247/5
f 155/245/5 152/247/5 73/248/5
f 125/249/4 156/250/4 157/251/4
f 158/252/3 159/253/3 156/254/3
f 160/255/4 159/256/4 158/257/4
f 161/258/4 149/259/4 114/260/4
f 162/261/5 160/262/5 163/263/5
f 164/264/5 165/265/5 136/266/5
f 166/267/6 163/268/6 167/269/6
f 167/269/6 163/268/6 164/270/6
f 161/271/6 162/272/6 166/267/6
f 161/258/4 151/241/4 153/243/4
f 155/273/4 73/99/4 150/274/4
f 155/275/6 149/276/6 153/277/6
f 114/278/6 115/279/6 159/280/6
f 166/281/5 168/282/5 161/283/5
f 169/284/5 170/285/5 87/286/5
f 171/287/4 172/288/4 173/289/4
f 167/290/5 172/291/5 174/292/5
f 175/293/6 170/294/6 93/295/6
f 167/296/4 168/297/4 166/298/4
f 173/299/6 167/269/6 164/270/6
f 154/300/4 87/130/4 74/100/4
f 151/241/4 87/130/4 154/300/4
f 169/301/6 168/302/6 174/303/6
f 97/304/4 176/305/4 177/306/4
f 97/164/3 20/307/3 22/308/3
f 178/309/5 51/310/5 90/135/5
f 179/311/2 180/312/2 90/313/2
f 181/314/4 88/315/4 182/316/4
f 182/317/5 88/134/5 91/136/5
f 70/318/4 183/319/4 18/21/4
f 184/320/4 185/321/4 110/322/4
f 113/174/6 100/152/6 156/323/6
f 149/259/4 105/166/4 114/260/4
f 186/324/5 178/309/5 182/317/5
f 171/325/6 144/326/6 147/327/6
f 186/328/6 187/329/6 178/330/6
f 3/148/3 17/147/3 16/331/3
f 16/332/1 1/1/1 3/3/1
f 3/6/2 4/5/2 96/333/2
f 15/17/3 14/16/3 7/334/3
f 188/335/3 25/336/3 6/337/3 9/338/3
f 13/339/1 12/340/1 189/341/1 14/342/1
f 10/343/3 190/344/3 191/345/3 192/346/3
f 12/14/2 13/57/2 10/12/2
f 11/13/2 10/12/2 192/347/2
f 193/348/4 8/349/4 22/350/4 21/351/4
f 194/352/1 22/353/1 189/354/1
f 189/355/2 99/356/2 194/357/2
f 189/358/3 22/359/3 5/360/3
f 12/361/3 99/362/3 189/363/3
f 5/360/3 22/359/3 8/364/3
f 8/10/1 193/365/1 9/11/1
f 183/366/3 193/367/3 21/368/3 18/369/3
f 110/169/3 185/370/3 67/371/3 111/170/3
f 176/372/1 22/353/1 194/352/1
f 97/304/4 22/373/4 176/305/4
f 19/24/1 18/374/1 21/25/1
f 22/308/3 20/307/3 19/375/3
f 111/376/4 67/93/4 20/23/4
f 20/23/4 67/93/4 18/21/4
f 23/377/1 15/63/1 28/62/1 195/378/1
f 29/379/1 28/62/1 7/9/1 6/8/1
f 30/35/3 29/34/3 27/380/3
f 27/32/1 33/44/1 30/61/1
f 6/381/2 25/382/2 27/383/2 29/384/2
f 23/385/5 196/386/5 197/387/5 198/388/5
f 195/378/1 196/389/1 23/377/1
f 35/390/5 199/391/5 200/392/5 82/393/5
f 23/27/2 198/394/2 43/395/2
f 34/42/1 199/396/1 35/43/1
f 32/39/5 195/397/5 31/40/5
f 196/389/1 195/378/1 32/398/1 82/121/1
f 32/399/2 33/400/2 35/401/2 82/402/2
f 36/403/2 10/12/2 13/57/2 24/28/2
f 141/404/3 36/45/3 37/47/3
f 141/405/1 190/406/1 10/407/1 36/408/1
f 37/59/2 41/53/2 141/220/2
f 190/409/2 141/220/2 118/219/2
f 42/410/2 43/395/2 198/394/2 56/79/2
f 42/54/5 41/411/5 38/55/5
f 39/51/2 201/412/2 40/52/2
f 39/413/5 56/414/5 57/415/5 201/416/5
f 39/417/1 41/418/1 42/419/1 56/420/1
f 202/421/5 46/422/5 47/423/5 203/424/5
f 23/27/2 43/395/2 24/28/2
f 41/53/2 40/52/2 141/220/2
f 24/48/1 43/425/1 38/49/1
f 27/32/1 34/42/1 33/44/1
f 31/36/2 195/426/2 28/37/2
f 204/427/5 203/428/5 48/429/5 50/430/5
f 46/66/1 82/121/1 44/64/1
f 51/77/1 203/431/1 47/432/1 55/78/1
f 48/433/2 203/434/2 51/73/2 53/75/2
f 205/435/5 89/436/5 181/437/5 179/438/5
f 90/133/1 89/132/1 205/439/1
f 205/440/2 179/311/2 90/313/2
f 204/441/1 198/442/1 197/443/1 203/444/1
f 45/67/2 55/445/2 47/68/2
f 48/70/1 53/446/1 49/71/1
f 56/79/2 198/394/2 204/447/2 50/80/2
f 202/448/1 196/389/1 82/121/1 46/66/1
f 197/449/2 196/450/2 202/451/2 203/452/2
f 58/453/1 9/11/1 193/365/1 78/454/1
f 26/31/1 34/42/1 27/32/1
f 188/455/4 9/456/4 58/457/4 26/458/4
f 60/459/1 78/454/1 183/460/1 77/461/1
f 58/82/3 78/462/3 59/83/3
f 78/116/4 62/115/4 59/463/4
f 80/464/1 200/465/1 61/466/1 60/459/1
f 70/318/4 77/113/4 183/319/4
f 62/88/5 61/87/5 34/467/5
f 34/468/4 61/469/4 200/470/4 199/471/4
f 66/472/1 67/473/1 185/474/1 65/475/1
f 75/476/5 79/117/5 77/119/5
f 66/92/4 70/318/4 18/21/4
f 184/320/4 65/91/4 185/321/4
f 70/477/3 66/478/3 64/479/3
f 81/480/5 206/481/5 94/482/5 83/483/5
f 70/96/1 64/484/1 68/94/1
f 66/478/3 65/485/3 64/479/3
f 63/486/5 76/104/5 68/106/5
f 63/487/1 72/107/1 76/109/1
f 59/85/1 62/488/1 34/42/1
f 63/89/4 68/489/4 64/90/4
f 73/99/4 63/89/4 65/91/4
f 193/365/1 183/460/1 78/454/1
f 60/459/1 77/461/1 80/464/1
f 69/103/4 77/113/4 70/318/4
f 54/76/1 83/490/1 94/491/1 91/492/1
f 94/493/4 86/494/4 92/138/4 91/137/4
f 206/495/1 81/120/1 200/465/1 80/464/1
f 84/496/5 86/140/5 95/142/5
f 181/314/4 89/497/4 88/315/4
f 83/124/4 54/498/4 44/122/4
f 86/127/1 85/126/1 92/499/1
f 200/465/1 81/120/1 82/121/1
f 80/500/4 79/501/4 94/502/4 206/503/4
f 99/504/6 11/505/6 139/506/6 103/507/6
f 75/101/4 84/129/4 95/508/4
f 87/130/4 84/129/4 74/100/4
f 79/145/1 95/144/1 94/509/1
f 4/510/6 17/511/6 96/512/6
f 103/513/3 139/514/3 140/515/3 123/516/3
f 192/347/2 139/216/2 11/13/2
f 157/517/3 100/518/3 102/519/3 126/520/3
f 103/155/2 123/521/2 101/156/2
f 111/376/4 20/23/4 108/167/4 109/237/4
f 123/193/6 102/154/6 101/153/6
f 104/522/6 17/511/6 4/510/6
f 97/164/3 108/163/3 20/307/3
f 139/216/2 192/347/2 117/523/2 119/217/2
f 105/166/4 109/237/4 108/167/4
f 115/524/4 107/176/4 113/178/4
f 99/173/3 113/172/3 97/525/3
f 107/161/6 106/160/6 97/526/6
f 191/527/6 118/528/6 117/529/6 192/530/6
f 207/531/2 208/532/2 121/533/2 57/81/2
f 116/183/3 119/534/3 117/184/3
f 40/535/6 201/536/6 57/537/6 121/538/6
f 208/539/5 120/189/5 121/191/5
f 126/540/2 102/541/2 122/542/2 127/543/2
f 134/213/6 124/194/6 140/221/6
f 128/198/6 127/197/6 129/223/6
f 129/544/2 124/545/2 134/546/2 133/547/2
f 116/548/2 118/219/2 40/52/2 120/549/2
f 122/192/6 102/154/6 123/193/6
f 129/200/3 127/550/3 122/201/3
f 130/211/6 134/213/6 131/222/6
f 165/551/6 138/215/6 137/214/6
f 165/265/5 137/552/5 136/266/5
f 136/553/6 135/212/6 130/211/6
f 128/554/5 133/205/5 135/207/5
f 135/210/2 137/209/2 128/555/2
f 132/204/5 131/203/5 207/556/5
f 207/531/2 131/557/2 208/532/2
f 140/218/2 119/217/2 208/532/2 131/557/2
f 208/558/6 119/186/6 120/188/6
f 143/559/5 209/560/5 210/561/5 211/562/5
f 138/215/6 125/195/6 128/198/6
f 210/563/6 178/330/6 212/564/6 146/565/6
f 142/566/6 209/567/6 143/568/6
f 210/569/2 209/570/2 52/74/2 178/571/2
f 180/572/6 179/573/6 181/574/6 182/575/6
f 207/576/6 211/577/6 210/578/6 132/579/6
f 182/317/5 178/309/5 180/580/5
f 146/229/5 145/228/5 210/581/5
f 212/582/2 147/230/2 146/232/2
f 178/330/6 187/329/6 212/564/6
f 142/566/6 52/583/6 209/567/6
f 50/80/2 143/226/2 57/81/2
f 211/584/2 207/531/2 57/81/2 143/226/2
f 109/585/6 148/586/6 184/587/6 110/588/6
f 145/589/6 144/326/6 130/211/6
f 144/326/6 136/553/6 130/211/6
f 210/590/2 145/233/2 132/235/2
f 105/166/4 149/259/4 148/236/4
f 150/274/4 73/99/4 184/320/4
f 73/99/4 65/91/4 184/320/4
f 152/591/6 154/592/6 71/593/6 73/594/6
f 155/275/6 150/595/6 149/276/6
f 148/240/3 150/239/3 184/596/3
f 115/279/6 113/174/6 156/323/6 159/280/6
f 151/241/4 154/300/4 152/242/4
f 163/597/4 138/598/4 165/599/4 164/600/4
f 125/601/3 158/252/3 156/254/3
f 161/271/6 114/278/6 162/272/6
f 166/267/6 162/272/6 163/268/6
f 160/262/5 138/602/5 163/263/5
f 125/195/6 138/215/6 160/603/6 158/604/6
f 189/605/2 5/606/2 7/607/2 14/608/2
f 151/609/5 161/283/5 168/282/5
f 172/610/6 187/329/6 186/328/6 174/611/6
f 160/255/4 162/612/4 159/256/4
f 162/272/6 114/278/6 159/280/6
f 161/258/4 153/243/4 149/259/4
f 170/613/4 174/614/4 186/615/4 93/139/4
f 164/270/6 136/553/6 144/326/6 173/299/6
f 175/293/6 87/616/6 170/294/6
f 167/290/5 173/617/5 172/291/5
f 171/325/6 173/299/6 144/326/6
f 171/287/4 187/618/4 172/288/4
f 169/284/5 174/619/5 170/285/5
f 2/620/3 194/621/3 98/622/3 4/623/3
f 169/301/6 151/624/6 168/302/6
f 169/625/4 87/130/4 151/241/4
f 167/296/4 174/626/4 168/297/4
f 11/627/3 99/362/3 12/361/3
f 176/628/3 1/629/3 104/630/3 177/631/3
f 194/357/2 99/356/2 98/632/2
f 49/633/5 53/634/5 52/635/5 142/636/5
f 49/637/2 142/225/2 50/80/2
f 180/580/5 178/309/5 90/135/5
f 92/638/5 85/639/5 175/640/5 93/641/5
f 51/73/2 178/571/2 52/74/2
f 175/642/4 85/128/4 87/130/4
f 186/324/5 182/317/5 91/136/5
f 176/628/3 194/621/3 2/620/3 1/629/3
f 186/615/4 91/137/4 93/139/4
f 190/409/2 118/219/2 191/643/2
f 188/644/1 26/31/1 25/30/1
f 124/194/6 123/193/6 140/221/6
f 125/195/6 157/645/6 126/196/6
f 157/251/4 156/250/4 100/646/4
f 45/647/5 44/648/5 54/649/5 55/650/5
f 91/136/5 90/135/5 51/310/5
f 54/76/1 91/492/1 51/77/1
f 104/630/3 4/623/3 98/622/3 177/631/3
f 97/149/6 177/651/6 98/150/6
f 212/652/5 187/653/5 171/654/5 147/655/5
f 100/152/6 112/175/6 101/153/6
f 101/656/3 112/171/3 99/173/3
