﻿[
    {
        "Name": "Ben",
        "Age": 20,
        "Gender": 0,
        "Instrument": 1,
        "Stats": [ 40, 30, 42, 60, 49 ]
    },
    {
        "Name": "Elton",
        "Age": 20,
        "Gender": 0,
        "Instrument": 1, //29,
        "Stats": [ 40, 30, 42, 30, 49 ]
    },
    {
        "Name": "Candice",
        "Age": 19,
        "Gender": 1,
        "Instrument": 2, //23,
        "Stats": [ 40, 30, 42, 80, 49 ]
    },
        {
        "Name": "Amos",
        "Age": 24,
        "Gender": 0,
        "Instrument": 3, //14,
        "Stats": [ 40, 30, 42, 60, 49 ]
    },
    {
        "Name": "Douglas",
        "Age": 18,
        "Gender": 0,
        "Instrument": 4, //26,
        "Stats": [ 40, 30, 42, 30, 49 ]
    },
    {
        "Name": "Kristine",
        "Age": 19,
        "Gender": 1,
        "Instrument": 5, //25,
        "Stats": [ 40, 30, 42, 80, 49 ]
    },
    {
        "Name": "Karen",
        "Age": 19,
        "Gender": 1,
        "Instrument": 6, //24,
        "Stats": [ 40, 30, 42, 80, 49 ]
    }
]
