# Blender v2.78 (sub 0) OBJ File: ''
# www.blender.org
mtllib tileWallBlank.mtl
o copy_tileWallBlank.001
v 7.999996 -0.000014 0.499996
v 7.999996 15.999996 0.500002
v -8.000014 15.999996 0.500002
v -8.000014 -0.000014 0.499996
vt 0.9878 0.0122
vt 0.9878 0.9878
vt 0.0122 0.9878
vt 0.0122 0.0122
vn 0.0000 -0.0000 1.0000
usemtl palette.058
s off
f 1/1/1 2/2/1 3/3/1 4/4/1
