# Blender v2.78 (sub 0) OBJ File: ''
# www.blender.org
mtllib charMouthSmileLarge.mtl
o c_charMouthSmileLarge.001
v 0.000000 1.000000 0.000000
v -2.000001 1.000000 -1.000004
v -2.000001 1.000000 0.000000
v 2.999999 -0.000004 -1.000004
v -3.000005 -0.000004 -1.000004
v 0.000000 1.000000 0.999998
v -2.000001 -0.000004 0.999998
v 1.999995 -0.000004 0.999998
v -3.000005 1.000000 0.999998
v -3.000005 1.999997 0.999998
v -3.000005 1.000000 0.000000
v 2.999999 -0.000004 -0.000000
v 1.999995 -0.000004 -0.000000
v -3.000005 -0.000004 -0.000000
v -2.000001 -0.000004 -0.000000
v 1.999995 1.999997 0.999998
v 1.999995 1.999998 -1.000003
v 1.999995 1.000000 -1.000004
v 2.999999 1.999998 -1.000003
v 2.999999 1.999997 0.999998
v 2.999999 1.000000 0.999998
v -3.000005 1.999998 -1.000003
v 2.999999 1.000000 0.000000
v -2.000001 1.999997 0.999998
v -2.000001 1.000000 0.999998
v 1.999995 1.000000 0.999998
v 1.999995 1.000000 0.416667
v -2.000001 1.000000 0.416667
v 1.999995 1.000000 0.000000
v -2.000001 1.999998 -1.000003
vt 0.6000 0.2157
vt 0.7000 0.4118
vt 0.6000 0.4118
vt 0.3600 0.5098
vt 0.4600 0.0196
vt 0.4600 0.6078
vt 0.8400 0.2157
vt 0.7400 0.4118
vt 0.7400 0.0196
vt 0.5000 0.5490
vt 0.5000 0.4510
vt 0.6000 0.5490
vt 0.0200 0.0196
vt 0.1200 0.0196
vt 0.1200 0.1176
vt 0.8800 0.1569
vt 0.9800 0.1569
vt 0.9800 0.2549
vt 0.8800 0.2549
vt 0.8400 0.6863
vt 0.8400 0.8824
vt 0.7400 0.8824
vt 0.2600 0.1176
vt 0.2600 0.0196
vt 0.3600 0.1176
vt 0.9800 0.9412
vt 0.8800 0.9412
vt 0.9800 0.8431
vt 0.2200 0.1176
vt 0.1200 0.5098
vt 0.7000 0.6471
vt 0.7000 0.4510
vt 0.2600 0.6078
vt 0.1200 0.7451
vt 0.0200 0.6471
vt 0.2200 0.6471
vt 0.9800 0.8039
vt 0.8800 0.7059
vt 0.9800 0.7059
vt 0.7400 0.6863
vt 0.7400 0.7435
vt 0.5583 0.4118
vt 0.8800 0.6258
vt 0.9800 0.6667
vt 0.8800 0.6667
vt 0.0200 0.9804
vt 0.1200 0.9395
vt 0.1200 0.9804
vt 0.2200 0.8431
vt 0.6000 0.6471
vt 0.0200 0.6078
vt 0.1200 0.6078
vt 0.9383 0.2941
vt 0.9800 0.3922
vt 0.8800 0.3922
vt 0.8800 0.2941
vt 0.7000 0.0196
vt 0.9800 0.4314
vt 0.9800 0.5294
vt 0.8800 0.4886
vt 0.8800 0.4314
vt 0.5000 0.4118
vt 0.5000 0.2157
vt 0.2200 0.5098
vt 0.8800 0.1176
vt 0.8800 0.0196
vt 0.9800 0.0196
vt 0.9800 0.1176
vt 0.8400 0.4118
vt 0.5000 0.8824
vt 0.5000 0.6863
vt 0.6000 0.8824
vt 0.2600 0.5098
vt 0.8800 0.8039
vt 0.0200 0.7451
vt 0.8800 0.5686
vt 0.9800 0.5686
vt 0.6000 0.0196
vt 0.1200 0.8824
vt 0.0200 0.8824
vt 0.5000 0.0196
vt 0.5583 0.0196
vt 0.2600 0.8431
vt 0.2600 0.6471
vt 0.3600 0.6471
vt 0.3600 0.8431
vt 0.8400 0.0196
vt 0.1200 0.8431
vt 0.6000 0.7843
vt 0.7400 0.7843
vt 0.6000 0.6863
vt 0.6000 0.7435
vt 0.8800 0.8431
vt 0.9800 0.2941
vt 0.8800 0.5294
vt 0.7400 0.6471
vt 0.7400 0.4510
vt 0.8400 0.4510
vt 0.8400 0.6471
vn 0.0000 1.0000 0.0000
vn 0.0000 0.0000 -1.0000
vn 0.0000 -0.0000 1.0000
vn -1.0000 0.0000 0.0000
vn 0.0000 -1.0000 -0.0000
vn 1.0000 0.0000 0.0000
usemtl palette.024
s off
f 1/1/1 2/2/1 3/3/1
f 2/4/2 4/5/2 5/6/2
f 6/7/3 7/8/3 8/9/3
f 9/10/4 10/11/4 11/12/4
f 4/13/5 12/14/5 13/15/5
f 14/16/3 15/17/3 3/18/3 11/19/3
f 16/20/4 17/21/4 18/22/4
f 17/23/2 19/24/2 18/25/2
f 20/26/3 16/27/3 21/28/3
f 13/15/5 8/29/5 15/30/5
f 5/31/4 11/12/4 22/32/4
f 22/33/2 2/4/2 5/6/2
f 23/34/6 4/35/6 19/36/6
f 18/25/2 19/24/2 4/5/2
f 24/37/3 9/38/3 25/39/3
f 26/40/4 16/20/4 27/41/4
f 1/1/1 3/3/1 28/42/1
f 27/43/6 13/44/6 29/45/6
f 23/46/5 27/47/5 29/48/5
f 20/49/6 23/34/6 19/36/6
f 14/50/4 11/12/4 5/31/4
f 5/51/5 15/30/5 14/52/5
f 28/53/4 15/54/4 7/55/4 25/56/4
f 1/1/1 18/57/1 2/2/1
f 2/4/2 18/25/2 4/5/2
f 5/51/5 4/13/5 15/30/5
f 9/58/5 11/59/5 28/60/5 25/61/5
f 28/42/1 25/62/1 6/63/1 1/1/1
f 15/30/5 8/29/5 7/64/5
f 13/65/3 12/66/3 23/67/3 29/68/3
f 6/7/3 25/69/3 7/8/3
f 30/70/6 24/71/6 2/72/6
f 22/33/2 30/73/2 2/4/2
f 24/37/3 10/74/3 9/38/3
f 4/35/6 23/34/6 12/75/6
f 13/44/6 27/43/6 26/76/6 8/77/6
f 1/1/1 29/78/1 18/57/1
f 26/79/5 27/47/5 23/46/5 21/80/5
f 1/1/1 6/63/1 26/81/1 27/82/1
f 22/83/1 10/84/1 24/85/1 30/86/1
f 26/87/3 6/7/3 8/9/3
f 20/49/6 21/88/6 23/34/6
f 4/13/5 13/15/5 15/30/5
f 24/71/6 3/89/6 2/72/6
f 18/22/4 29/90/4 16/20/4
f 24/71/6 25/91/6 28/92/6
f 21/28/3 16/27/3 26/93/3
f 15/54/4 28/53/4 3/94/4
f 3/95/5 28/60/5 11/59/5
f 11/12/4 10/11/4 22/32/4
f 17/96/1 16/97/1 20/98/1 19/99/1
f 1/1/1 27/82/1 29/78/1
f 24/71/6 28/92/6 3/89/6
f 29/90/4 27/41/4 16/20/4
