# Blender v2.78 (sub 0) OBJ File: ''
# www.blender.org
mtllib propCommercial3.mtl
o copy_propCommercial3.000
v -6.000010 0.999995 -7.000004
v -7.000004 0.999995 -7.000004
v -7.000004 0.999992 2.999997
v -6.000010 5.999996 -7.000002
v -7.000004 5.999996 -7.000002
v -7.000004 5.999992 2.999999
v -7.000004 7.999998 -7.000000
v -6.000010 0.999992 2.999997
v -6.000010 5.999992 2.999999
v -6.000010 -0.000002 6.999987
v -6.000010 3.999987 6.999988
v -6.000010 -0.000002 5.000000
v -6.000010 3.999988 5.000000
v -7.000004 -0.000002 5.000000
v -7.000004 -0.000002 6.999987
v -7.000004 3.999987 6.999988
v -7.000004 3.999988 5.000000
v -7.000004 -0.000003 7.999996
v -7.000004 7.999994 6.999990
v -8.000014 7.999994 6.999990
v -8.000014 10.000002 -7.000000
v -8.000014 7.999998 -7.000000
v 2.999997 10.999996 -7.000000
v -7.000004 10.999996 -8.000010
v 0.000000 10.999996 -4.999996
v -4.000007 10.999994 1.999990
v -7.000004 10.999992 8.000000
v 0.000000 10.999994 -1.000006
v 0.000000 13.000000 -3.000010
v -1.000010 15.000000 -1.000005
v -1.000010 15.000002 -3.000010
v -1.000010 13.000000 -3.000010
v -1.000010 12.999998 -1.000006
v 1.999987 15.000000 -1.000005
v -7.000004 9.999998 6.999990
v -7.000004 10.000002 -7.000000
v -8.000014 9.999998 6.999990
v 7.999996 -0.000003 7.999996
v 0.000000 13.999990 1.999991
v 0.000000 10.999994 1.999990
v -4.000007 10.999992 6.999991
v -4.000007 13.999990 6.999991
v 0.000000 13.999990 6.999991
v 0.000000 10.999992 6.999991
v -4.000007 13.999990 1.999991
v 2.999997 10.999996 -4.999996
v 2.999997 13.000000 -4.999996
v 2.999997 10.999994 -1.999999
v 1.999987 10.999996 -3.000010
v 1.999987 10.999994 -1.000006
v 2.999997 13.999992 -6.999999
v 1.999987 15.000002 -3.000010
v 1.999987 13.000000 -3.000010
v 0.000000 12.999998 -1.000006
v 2.999997 10.999996 -3.000010
v 6.999987 10.999996 -7.000000
v 6.999987 13.999990 -1.999999
v 6.999987 13.999992 -6.999999
v 2.999997 13.999990 -1.999999
v 6.999987 10.999994 -1.999999
v 7.999996 10.999996 -8.000010
v 7.999996 10.999993 -0.347218
v 7.999996 7.216254 1.678605
v 2.999997 13.000000 -3.000010
v 7.999996 10.999992 8.000000
v 7.999996 10.999993 1.666671
v -7.000004 0.000002 -8.000014
v 0.000000 13.000000 -4.999996
v 7.999996 0.000002 -8.000014
vt 0.9246 0.6717
vt 0.8995 0.6717
vt 0.8995 0.4192
vt 0.9698 0.2677
vt 0.9950 0.2677
vt 0.9698 0.3939
vt 0.5427 0.1313
vt 0.5930 0.3838
vt 0.5427 0.3838
vt 0.6784 0.0051
vt 0.8040 0.0051
vt 0.8040 0.2576
vt 0.9095 0.0051
vt 0.9347 0.0051
vt 0.9347 0.2576
vt 0.9447 0.0051
vt 0.9698 0.1313
vt 0.9447 0.1313
vt 0.9146 0.9091
vt 0.9146 0.8081
vt 0.9648 0.9091
vt 0.9648 0.8081
vt 0.9447 0.1414
vt 0.9698 0.2424
vt 0.9447 0.2424
vt 0.9598 0.7828
vt 0.9598 0.6818
vt 0.9849 0.6818
vt 0.9849 0.7828
vt 0.4925 0.0303
vt 0.4925 0.0808
vt 0.3920 0.0051
vt 0.5930 0.0303
vt 0.3920 0.0808
vt 0.4171 0.1313
vt 0.8141 0.0051
vt 0.8643 0.3586
vt 0.8141 0.3586
vt 0.2563 0.3838
vt 0.0050 0.4091
vt 0.1809 0.3333
vt 0.0804 0.1566
vt 0.0050 0.0051
vt 0.1809 0.2323
vt 0.9095 0.2677
vt 0.9598 0.3182
vt 0.9095 0.3687
vt 0.8040 0.9192
vt 0.8543 0.9192
vt 0.8543 0.9697
vt 0.9849 0.5909
vt 0.9347 0.6162
vt 0.9347 0.5909
vt 0.8040 0.9697
vt 0.9849 0.5808
vt 0.9347 0.5051
vt 0.9849 0.5051
vt 0.6432 0.0303
vt 0.6683 0.0051
vt 0.6432 0.3838
vt 0.8643 0.4192
vt 0.8894 0.4192
vt 0.8894 0.7727
vt 0.5678 0.7980
vt 0.2915 0.7980
vt 0.2915 0.4192
vt 0.8191 0.9091
vt 0.7437 0.9091
vt 0.7437 0.8081
vt 0.1809 0.1566
vt 0.5729 0.8081
vt 0.6482 0.8081
vt 0.5729 0.9343
vt 0.4020 0.8081
vt 0.4774 0.8081
vt 0.4020 0.9343
vt 0.9045 0.8081
vt 0.8291 0.9091
vt 0.8291 0.8081
vt 0.7789 0.3939
vt 0.6784 0.3939
vt 0.6784 0.2677
vt 0.4874 0.8838
vt 0.5377 0.8838
vt 0.4874 0.9343
vt 0.2563 0.2576
vt 0.2312 0.2828
vt 0.2312 0.2323
vt 0.5628 0.9343
vt 0.9849 0.6667
vt 0.9347 0.6667
vt 0.8995 0.7828
vt 0.9497 0.7323
vt 0.9497 0.7828
vt 0.0050 0.8333
vt 0.0553 0.8838
vt 0.0050 0.9343
vt 0.9246 0.9192
vt 0.9246 0.9697
vt 0.8995 0.9697
vt 0.2513 0.8333
vt 0.1759 0.9343
vt 0.1759 0.8333
vt 0.7337 0.9343
vt 0.6583 0.8081
vt 0.7337 0.8081
vt 0.1658 0.9343
vt 0.0905 0.9343
vt 0.0905 0.8333
vt 0.3819 0.4091
vt 0.3568 0.3838
vt 0.3568 0.2576
vt 0.0050 0.6300
vt 0.1001 0.5788
vt 0.0050 0.8232
vt 0.1658 0.8333
vt 0.3920 0.8081
vt 0.2915 0.9343
vt 0.2915 0.8081
vt 0.5377 0.8333
vt 0.5628 0.8081
vt 0.3819 0.0051
vt 0.1809 0.0303
vt 0.3819 0.2158
vt 0.0653 0.9444
vt 0.0653 0.9949
vt 0.0402 0.9949
vt 0.0402 0.9444
vt 0.0050 0.5791
vt 0.0804 0.8838
vt 0.0050 0.4192
vt 0.2814 0.4192
vt 0.8744 0.3586
vt 0.8995 0.0051
vt 0.8995 0.3586
vt 0.4171 0.3838
vt 0.3920 0.4091
vt 0.9950 0.3939
vt 0.6784 0.2576
vt 0.9095 0.2576
vt 0.3920 0.0303
vt 0.9698 0.1414
vt 0.9698 0.0051
vt 0.0302 0.9949
vt 0.0050 0.9949
vt 0.0050 0.9444
vt 0.0302 0.9444
vt 0.6683 0.4091
vt 0.9598 0.9192
vt 0.9598 0.9697
vt 0.9347 0.9697
vt 0.9347 0.9192
vt 0.9598 0.3687
vt 0.9598 0.2677
vt 0.0804 0.8333
vt 0.8894 0.9697
vt 0.8643 0.9697
vt 0.8643 0.9192
vt 0.8894 0.9192
vt 0.8744 0.0051
vt 0.8643 0.7727
vt 0.0804 0.0303
vt 0.8643 0.0051
vt 0.8191 0.8081
vt 0.6482 0.9343
vt 0.4774 0.9343
vt 0.7789 0.2677
vt 0.9045 0.9091
vt 0.8543 0.7980
vt 0.5779 0.4192
vt 0.8543 0.4192
vt 0.2814 0.8232
vt 0.2563 0.3333
vt 0.5779 0.7980
vt 0.4874 0.8081
vt 0.4874 0.8333
vt 0.2563 0.2828
vt 0.8995 0.6818
vt 0.9497 0.6818
vt 0.9347 0.4949
vt 0.9347 0.4192
vt 0.9849 0.4192
vt 0.7940 0.9192
vt 0.7940 0.9697
vt 0.7437 0.9192
vt 0.0553 0.9343
vt 0.9347 0.5808
vt 0.7940 0.9949
vt 0.7437 0.9949
vt 0.8995 0.9192
vt 0.2513 0.9343
vt 0.6583 0.9343
vt 0.3920 0.9343
vt 0.5678 0.4192
vt 0.3819 0.1650
vt 0.9849 0.4949
vt 0.9246 0.4192
vn 0.0000 1.0000 0.0000
vn 0.0000 -0.0000 1.0000
vn -1.0000 -0.0000 0.0000
vn 0.0000 -1.0000 -0.0000
vn 0.0000 0.0000 -1.0000
vn 1.0000 0.0000 0.0000
usemtl palette.035
s off
f 1/1/1 2/2/1 3/3/1
f 4/4/2 5/5/2 1/6/2
f 6/7/3 7/8/3 5/9/3
f 8/10/3 9/11/3 4/12/3
f 9/13/4 6/14/4 5/15/4
f 6/16/5 8/17/5 3/18/5
f 10/19/3 11/20/3 12/21/3
f 11/20/3 13/22/3 12/21/3
f 13/23/2 14/24/2 12/25/2
f 11/26/5 10/27/5 15/28/5
f 16/29/5 11/26/5 15/28/5
f 16/30/3 6/7/3 17/31/3
f 18/32/3 19/33/3 16/30/3
f 14/34/3 17/31/3 3/35/3
f 20/36/3 21/37/3 22/38/3
f 23/39/1 24/40/1 25/41/1
f 26/42/1 24/40/1 27/43/1
f 28/44/1 24/40/1 26/42/1
f 28/45/3 29/46/3 25/47/3
f 30/48/3 31/49/3 32/50/3
f 31/51/5 29/52/5 32/53/5
f 33/54/3 30/48/3 32/50/3
f 34/55/1 31/56/1 30/57/1
f 35/58/3 27/59/3 36/60/3
f 36/61/1 21/62/1 37/63/1
f 27/64/2 18/65/2 38/66/2
f 39/67/5 40/68/5 26/69/5
f 40/70/1 28/44/1 26/42/1
f 41/71/3 42/72/3 26/73/3
f 43/74/6 44/75/6 39/76/6
f 43/77/2 41/78/2 44/79/2
f 39/80/1 45/81/1 42/82/1
f 46/83/3 47/84/3 23/85/3
f 48/86/1 49/87/1 50/88/1
f 47/84/3 51/89/3 23/85/3
f 52/90/5 53/91/5 29/52/5
f 34/92/6 53/93/6 52/94/6
f 34/95/2 54/96/2 50/97/2
f 53/98/2 49/99/2 55/100/2
f 51/101/5 56/102/5 23/103/5
f 57/104/6 56/105/6 58/106/6
f 59/107/2 48/108/2 60/109/2
f 61/110/1 56/111/1 60/112/1
f 62/113/6 63/114/6 61/115/6
f 57/116/2 59/107/2 60/109/2
f 57/117/1 51/118/1 59/119/1
f 56/111/1 61/110/1 23/39/1
f 64/120/3 59/121/3 47/84/3
f 65/122/1 44/123/1 27/43/1
f 62/124/1 60/112/1 48/86/1
f 16/125/4 17/126/4 13/127/4 11/128/4
f 66/129/6 63/114/6 62/113/6
f 65/122/1 48/86/1 50/88/1
f 34/95/2 33/130/2 54/96/2
f 6/7/3 19/33/3 7/8/3
f 65/131/6 38/132/6 63/114/6
f 7/133/4 20/134/4 22/135/4
f 50/88/1 28/44/1 40/70/1
f 2/136/3 5/9/3 67/137/3
f 1/6/2 5/5/2 2/138/2
f 14/34/3 3/35/3 67/137/3
f 1/139/3 8/10/3 4/12/3
f 67/137/3 3/35/3 2/136/3
f 4/140/4 9/13/4 5/15/4
f 3/35/3 17/31/3 6/7/3
f 18/32/3 16/30/3 15/141/3
f 13/23/2 17/142/2 14/24/2
f 6/16/5 9/143/5 8/17/5
f 16/30/3 19/33/3 6/7/3
f 7/144/5 22/145/5 21/146/5 36/147/5
f 24/148/3 67/137/3 7/8/3 36/60/3
f 33/149/4 32/150/4 29/151/4 54/152/4
f 36/60/3 27/59/3 24/148/3
f 25/47/3 29/46/3 68/153/3
f 28/44/1 25/41/1 24/40/1
f 28/45/3 54/154/3 29/46/3
f 34/95/2 30/155/2 33/130/2
f 20/156/2 19/157/2 35/158/2 37/159/2
f 7/133/4 19/160/4 20/134/4
f 35/161/1 36/61/1 37/63/1
f 41/162/1 26/42/1 27/43/1
f 20/36/3 37/163/3 21/37/3
f 35/58/3 19/33/3 18/32/3 27/59/3
f 45/164/5 39/67/5 26/69/5
f 26/73/3 42/72/3 45/165/3
f 39/76/6 44/75/6 40/166/6
f 27/43/1 44/123/1 41/162/1
f 43/167/1 39/80/1 42/82/1
f 43/77/2 42/168/2 41/78/2
f 67/169/5 61/170/5 69/171/5
f 63/114/6 38/132/6 69/172/6
f 25/41/1 46/173/1 23/39/1
f 23/39/1 61/110/1 24/40/1
f 24/174/5 61/170/5 67/169/5
f 48/175/3 64/120/3 55/176/3
f 48/86/1 55/177/1 49/87/1
f 53/93/6 50/178/6 49/179/6
f 68/180/5 47/181/5 46/182/5
f 47/84/3 59/121/3 51/89/3
f 29/183/1 53/184/1 68/185/1
f 50/97/2 54/96/2 28/186/2
f 34/92/6 50/178/6 53/93/6
f 34/55/1 52/187/1 31/56/1
f 31/51/5 52/90/5 29/52/5
f 64/188/1 47/189/1 53/184/1
f 64/190/2 53/98/2 55/100/2
f 48/175/3 59/121/3 64/120/3
f 51/101/5 58/191/5 56/102/5
f 57/104/6 60/192/6 56/105/6
f 61/115/6 63/114/6 69/172/6
f 62/124/1 61/110/1 60/112/1
f 57/117/1 58/193/1 51/118/1
f 53/184/1 47/189/1 68/185/1
f 65/194/2 27/64/2 38/66/2
f 66/129/6 65/131/6 63/114/6
f 66/195/1 62/124/1 48/86/1
f 65/122/1 66/195/1 48/86/1
f 44/123/1 65/122/1 50/88/1
f 44/123/1 50/88/1 40/70/1
f 68/180/5 46/182/5 25/196/5
f 5/9/3 7/8/3 67/137/3
f 8/197/1 1/1/1 3/3/1
